%YAML 1.1
%TAG !u! tag:unity3d.com,2011:
--- !u!1 &333619889
GameObject:
  m_ObjectHideFlags: 0
  m_CorrespondingSourceObject: {fileID: 0}
  m_PrefabInstance: {fileID: 0}
  m_PrefabAsset: {fileID: 0}
  serializedVersion: 6
  m_Component:
  - component: {fileID: 333619890}
  - component: {fileID: 333619891}
  m_Layer: 0
  m_Name: carre
  m_TagString: Untagged
  m_Icon: {fileID: 0}
  m_NavMeshLayer: 0
  m_StaticEditorFlags: 0
  m_IsActive: 1
--- !u!4 &333619890
Transform:
  m_ObjectHideFlags: 0
  m_CorrespondingSourceObject: {fileID: 0}
  m_PrefabInstance: {fileID: 0}
  m_PrefabAsset: {fileID: 0}
  m_GameObject: {fileID: 333619889}
  m_LocalRotation: {x: 0, y: 0, z: 0, w: 1}
  m_LocalPosition: {x: 0, y: 0, z: 0}
  m_LocalScale: {x: 1, y: 0.1875, z: 1}
  m_Children: []
  m_Father: {fileID: 971934573}
  m_RootOrder: 0
  m_LocalEulerAnglesHint: {x: 0, y: 0, z: 0}
--- !u!65 &333619891
BoxCollider:
  m_ObjectHideFlags: 0
  m_CorrespondingSourceObject: {fileID: 0}
  m_PrefabInstance: {fileID: 0}
  m_PrefabAsset: {fileID: 0}
  m_GameObject: {fileID: 333619889}
  m_Material: {fileID: 0}
  m_IsTrigger: 0
  m_Enabled: 1
  serializedVersion: 2
  m_Size: {x: 1, y: 1, z: 1}
  m_Center: {x: 0, y: 0, z: 0}
--- !u!1 &971934572
GameObject:
  m_ObjectHideFlags: 0
  m_CorrespondingSourceObject: {fileID: 0}
  m_PrefabInstance: {fileID: 0}
  m_PrefabAsset: {fileID: 0}
  serializedVersion: 6
  m_Component:
  - component: {fileID: 971934573}
  m_Layer: 0
  m_Name: Collider
  m_TagString: Untagged
  m_Icon: {fileID: 0}
  m_NavMeshLayer: 0
  m_StaticEditorFlags: 0
  m_IsActive: 1
--- !u!4 &971934573
Transform:
  m_ObjectHideFlags: 0
  m_CorrespondingSourceObject: {fileID: 0}
  m_PrefabInstance: {fileID: 0}
  m_PrefabAsset: {fileID: 0}
  m_GameObject: {fileID: 971934572}
  m_LocalRotation: {x: 0, y: 0, z: 0, w: 1}
  m_LocalPosition: {x: -0.5, y: 0, z: 0.5}
  m_LocalScale: {x: 1, y: 1, z: 1}
  m_Children:
  - {fileID: 333619890}
  m_Father: {fileID: 8550080308840199783}
  m_RootOrder: 0
  m_LocalEulerAnglesHint: {x: 0, y: 0, z: 0}
--- !u!1001 &8550080308840328423
PrefabInstance:
  m_ObjectHideFlags: 0
  serializedVersion: 2
  m_Modification:
    m_TransformParent: {fileID: 0}
    m_Modifications:
    - target: {fileID: 100000, guid: b6777b72563ebeb4b9b504d72a0e727c, type: 3}
      propertyPath: m_Name
      value: SM_Fenetre1x1_3 Variant
      objectReference: {fileID: 0}
    - target: {fileID: 2300000, guid: b6777b72563ebeb4b9b504d72a0e727c, type: 3}
      propertyPath: m_Materials.Array.data[0]
      value: 
      objectReference: {fileID: 2100000, guid: bae770c2433d11f4887ae665e4dea1f7, type: 2}
    - target: {fileID: 400000, guid: b6777b72563ebeb4b9b504d72a0e727c, type: 3}
      propertyPath: m_LocalPosition.x
      value: -17.212305
      objectReference: {fileID: 0}
    - target: {fileID: 400000, guid: b6777b72563ebeb4b9b504d72a0e727c, type: 3}
      propertyPath: m_LocalPosition.y
      value: 21.913143
      objectReference: {fileID: 0}
    - target: {fileID: 400000, guid: b6777b72563ebeb4b9b504d72a0e727c, type: 3}
      propertyPath: m_LocalPosition.z
      value: 96.847855
      objectReference: {fileID: 0}
    - target: {fileID: 400000, guid: b6777b72563ebeb4b9b504d72a0e727c, type: 3}
      propertyPath: m_LocalRotation.x
      value: -0.7071068
      objectReference: {fileID: 0}
    - target: {fileID: 400000, guid: b6777b72563ebeb4b9b504d72a0e727c, type: 3}
      propertyPath: m_LocalRotation.y
      value: 0
      objectReference: {fileID: 0}
    - target: {fileID: 400000, guid: b6777b72563ebeb4b9b504d72a0e727c, type: 3}
      propertyPath: m_LocalRotation.z
      value: -0
      objectReference: {fileID: 0}
    - target: {fileID: 400000, guid: b6777b72563ebeb4b9b504d72a0e727c, type: 3}
      propertyPath: m_LocalRotation.w
      value: 0.7071068
      objectReference: {fileID: 0}
    - target: {fileID: 400000, guid: b6777b72563ebeb4b9b504d72a0e727c, type: 3}
      propertyPath: m_RootOrder
      value: 0
      objectReference: {fileID: 0}
    - target: {fileID: 400000, guid: b6777b72563ebeb4b9b504d72a0e727c, type: 3}
      propertyPath: m_LocalEulerAnglesHint.x
      value: 0
      objectReference: {fileID: 0}
    - target: {fileID: 400000, guid: b6777b72563ebeb4b9b504d72a0e727c, type: 3}
      propertyPath: m_LocalEulerAnglesHint.y
      value: 0
      objectReference: {fileID: 0}
    - target: {fileID: 400000, guid: b6777b72563ebeb4b9b504d72a0e727c, type: 3}
      propertyPath: m_LocalEulerAnglesHint.z
      value: 0
      objectReference: {fileID: 0}
    m_RemovedComponents: []
  m_SourcePrefab: {fileID: 100100000, guid: b6777b72563ebeb4b9b504d72a0e727c, type: 3}
--- !u!4 &8550080308840199783 stripped
Transform:
  m_CorrespondingSourceObject: {fileID: 400000, guid: b6777b72563ebeb4b9b504d72a0e727c,
    type: 3}
  m_PrefabInstance: {fileID: 8550080308840328423}
  m_PrefabAsset: {fileID: 0}
