%YAML 1.1
%TAG !u! tag:unity3d.com,2011:
--- !u!1 &3306011374966734476
GameObject:
  m_ObjectHideFlags: 0
  m_CorrespondingSourceObject: {fileID: 0}
  m_PrefabInstance: {fileID: 0}
  m_PrefabAsset: {fileID: 0}
  serializedVersion: 6
  m_Component:
  - component: {fileID: 1319593468795909833}
  - component: {fileID: 1493242902502715911}
  - component: {fileID: 888749137394823388}
  - component: {fileID: 7510697705620488399}
  - component: {fileID: 3597851385423853748}
  m_Layer: 0
  m_Name: Corde
  m_TagString: Untagged
  m_Icon: {fileID: 0}
  m_NavMeshLayer: 0
  m_StaticEditorFlags: 0
  m_IsActive: 1
--- !u!4 &1319593468795909833
Transform:
  m_ObjectHideFlags: 0
  m_CorrespondingSourceObject: {fileID: 0}
  m_PrefabInstance: {fileID: 0}
  m_PrefabAsset: {fileID: 0}
  m_GameObject: {fileID: 3306011374966734476}
  m_LocalRotation: {x: 0.56164926, y: -0.38007206, z: -0.5324724, w: 0.50652593}
  m_LocalPosition: {x: 42.18, y: -37.82, z: 0.49}
  m_LocalScale: {x: 1, y: 1, z: 1}
  m_Children: []
  m_Father: {fileID: 0}
  m_RootOrder: 0
  m_LocalEulerAnglesHint: {x: 0, y: 0, z: 0}
--- !u!33 &1493242902502715911
MeshFilter:
  m_ObjectHideFlags: 0
  m_CorrespondingSourceObject: {fileID: 0}
  m_PrefabInstance: {fileID: 0}
  m_PrefabAsset: {fileID: 0}
  m_GameObject: {fileID: 3306011374966734476}
  m_Mesh: {fileID: 0}
--- !u!23 &888749137394823388
MeshRenderer:
  m_ObjectHideFlags: 0
  m_CorrespondingSourceObject: {fileID: 0}
  m_PrefabInstance: {fileID: 0}
  m_PrefabAsset: {fileID: 0}
  m_GameObject: {fileID: 3306011374966734476}
  m_Enabled: 1
  m_CastShadows: 1
  m_ReceiveShadows: 1
  m_DynamicOccludee: 1
  m_MotionVectors: 1
  m_LightProbeUsage: 1
  m_ReflectionProbeUsage: 1
  m_RenderingLayerMask: 1
  m_RendererPriority: 0
  m_Materials:
  - {fileID: 2100000, guid: d0e80788e85a7a34aa544177bfd3f57a, type: 2}
  m_StaticBatchInfo:
    firstSubMesh: 0
    subMeshCount: 0
  m_StaticBatchRoot: {fileID: 0}
  m_ProbeAnchor: {fileID: 0}
  m_LightProbeVolumeOverride: {fileID: 0}
  m_ScaleInLightmap: 1
  m_PreserveUVs: 0
  m_IgnoreNormalsForChartDetection: 0
  m_ImportantGI: 0
  m_StitchLightmapSeams: 0
  m_SelectedEditorRenderState: 2
  m_MinimumChartSize: 4
  m_AutoUVMaxDistance: 0.5
  m_AutoUVMaxAngle: 89
  m_LightmapParameters: {fileID: 0}
  m_SortingLayerID: 0
  m_SortingLayer: 0
  m_SortingOrder: 0
--- !u!114 &7510697705620488399
MonoBehaviour:
  m_ObjectHideFlags: 0
  m_CorrespondingSourceObject: {fileID: 0}
  m_PrefabInstance: {fileID: 0}
  m_PrefabAsset: {fileID: 0}
  m_GameObject: {fileID: 3306011374966734476}
  m_Enabled: 1
  m_EditorHideFlags: 0
  m_Script: {fileID: 11500000, guid: 8233d90336aea43098adf6dbabd606a2, type: 3}
  m_Name: 
  m_EditorClassIdentifier: 
  m_MeshFormatVersion: 1
  m_Faces:
  - m_Indexes: 000000000100000002000000010000000300000002000000
    m_SmoothingGroup: 0
    m_Uv:
      m_UseWorldSpace: 0
      m_FlipU: 0
      m_FlipV: 0
      m_SwapUV: 0
      m_Fill: 1
      m_Scale: {x: 1, y: 1}
      m_Offset: {x: 0, y: 0}
      m_Rotation: 0
      m_Anchor: 9
    m_Material: {fileID: 0}
    m_SubmeshIndex: 0
    m_ManualUV: 0
    elementGroup: -1
    m_TextureGroup: -1
  - m_Indexes: 040000000500000006000000050000000700000006000000
    m_SmoothingGroup: 0
    m_Uv:
      m_UseWorldSpace: 0
      m_FlipU: 0
      m_FlipV: 0
      m_SwapUV: 0
      m_Fill: 1
      m_Scale: {x: 1, y: 1}
      m_Offset: {x: 0, y: 0}
      m_Rotation: 0
      m_Anchor: 9
    m_Material: {fileID: 0}
    m_SubmeshIndex: 0
    m_ManualUV: 0
    elementGroup: -1
    m_TextureGroup: -1
  - m_Indexes: 08000000090000000a000000090000000b0000000a000000
    m_SmoothingGroup: 0
    m_Uv:
      m_UseWorldSpace: 0
      m_FlipU: 0
      m_FlipV: 0
      m_SwapUV: 0
      m_Fill: 1
      m_Scale: {x: 1, y: 1}
      m_Offset: {x: 0, y: 0}
      m_Rotation: 0
      m_Anchor: 9
    m_Material: {fileID: 0}
    m_SubmeshIndex: 0
    m_ManualUV: 0
    elementGroup: -1
    m_TextureGroup: -1
  - m_Indexes: 0c0000000d0000000e0000000d0000000f0000000e000000
    m_SmoothingGroup: 0
    m_Uv:
      m_UseWorldSpace: 0
      m_FlipU: 0
      m_FlipV: 0
      m_SwapUV: 0
      m_Fill: 1
      m_Scale: {x: 1, y: 1}
      m_Offset: {x: 0, y: 0}
      m_Rotation: 0
      m_Anchor: 9
    m_Material: {fileID: 0}
    m_SubmeshIndex: 0
    m_ManualUV: 0
    elementGroup: -1
    m_TextureGroup: -1
  - m_Indexes: 100000001100000012000000110000001300000012000000
    m_SmoothingGroup: 0
    m_Uv:
      m_UseWorldSpace: 0
      m_FlipU: 0
      m_FlipV: 0
      m_SwapUV: 0
      m_Fill: 1
      m_Scale: {x: 1, y: 1}
      m_Offset: {x: 0, y: 0}
      m_Rotation: 0
      m_Anchor: 9
    m_Material: {fileID: 0}
    m_SubmeshIndex: 0
    m_ManualUV: 0
    elementGroup: -1
    m_TextureGroup: -1
  - m_Indexes: 140000001500000016000000150000001700000016000000
    m_SmoothingGroup: 0
    m_Uv:
      m_UseWorldSpace: 0
      m_FlipU: 0
      m_FlipV: 0
      m_SwapUV: 0
      m_Fill: 1
      m_Scale: {x: 1, y: 1}
      m_Offset: {x: 0, y: 0}
      m_Rotation: 0
      m_Anchor: 9
    m_Material: {fileID: 0}
    m_SubmeshIndex: 0
    m_ManualUV: 0
    elementGroup: -1
    m_TextureGroup: -1
  - m_Indexes: 18000000190000001a000000190000001b0000001a000000
    m_SmoothingGroup: 0
    m_Uv:
      m_UseWorldSpace: 0
      m_FlipU: 0
      m_FlipV: 0
      m_SwapUV: 0
      m_Fill: 1
      m_Scale: {x: 1, y: 1}
      m_Offset: {x: 0, y: 0}
      m_Rotation: 0
      m_Anchor: 9
    m_Material: {fileID: 0}
    m_SubmeshIndex: 0
    m_ManualUV: 0
    elementGroup: -1
    m_TextureGroup: -1
  - m_Indexes: 1c0000001d0000001e0000001d0000001f0000001e000000
    m_SmoothingGroup: 0
    m_Uv:
      m_UseWorldSpace: 0
      m_FlipU: 0
      m_FlipV: 0
      m_SwapUV: 0
      m_Fill: 1
      m_Scale: {x: 1, y: 1}
      m_Offset: {x: 0, y: 0}
      m_Rotation: 0
      m_Anchor: 9
    m_Material: {fileID: 0}
    m_SubmeshIndex: 0
    m_ManualUV: 0
    elementGroup: -1
    m_TextureGroup: -1
  - m_Indexes: 200000002100000022000000210000002300000022000000
    m_SmoothingGroup: 0
    m_Uv:
      m_UseWorldSpace: 0
      m_FlipU: 0
      m_FlipV: 0
      m_SwapUV: 0
      m_Fill: 1
      m_Scale: {x: 1, y: 1}
      m_Offset: {x: 0, y: 0}
      m_Rotation: 0
      m_Anchor: 9
    m_Material: {fileID: 0}
    m_SubmeshIndex: 0
    m_ManualUV: 0
    elementGroup: -1
    m_TextureGroup: -1
  - m_Indexes: 240000002500000026000000250000002700000026000000
    m_SmoothingGroup: 0
    m_Uv:
      m_UseWorldSpace: 0
      m_FlipU: 0
      m_FlipV: 0
      m_SwapUV: 0
      m_Fill: 1
      m_Scale: {x: 1, y: 1}
      m_Offset: {x: 0, y: 0}
      m_Rotation: 0
      m_Anchor: 9
    m_Material: {fileID: 0}
    m_SubmeshIndex: 0
    m_ManualUV: 0
    elementGroup: -1
    m_TextureGroup: -1
  - m_Indexes: 28000000290000002a000000290000002b0000002a000000
    m_SmoothingGroup: 0
    m_Uv:
      m_UseWorldSpace: 0
      m_FlipU: 0
      m_FlipV: 0
      m_SwapUV: 0
      m_Fill: 1
      m_Scale: {x: 1, y: 1}
      m_Offset: {x: 0, y: 0}
      m_Rotation: 0
      m_Anchor: 9
    m_Material: {fileID: 0}
    m_SubmeshIndex: 0
    m_ManualUV: 0
    elementGroup: -1
    m_TextureGroup: -1
  - m_Indexes: 2c0000002d0000002e0000002d0000002f0000002e000000
    m_SmoothingGroup: 0
    m_Uv:
      m_UseWorldSpace: 0
      m_FlipU: 0
      m_FlipV: 0
      m_SwapUV: 0
      m_Fill: 1
      m_Scale: {x: 1, y: 1}
      m_Offset: {x: 0, y: 0}
      m_Rotation: 0
      m_Anchor: 9
    m_Material: {fileID: 0}
    m_SubmeshIndex: 0
    m_ManualUV: 0
    elementGroup: -1
    m_TextureGroup: -1
  - m_Indexes: 300000003100000032000000310000003300000032000000
    m_SmoothingGroup: 0
    m_Uv:
      m_UseWorldSpace: 0
      m_FlipU: 0
      m_FlipV: 0
      m_SwapUV: 0
      m_Fill: 1
      m_Scale: {x: 1, y: 1}
      m_Offset: {x: 0, y: 0}
      m_Rotation: 0
      m_Anchor: 9
    m_Material: {fileID: 0}
    m_SubmeshIndex: 0
    m_ManualUV: 0
    elementGroup: -1
    m_TextureGroup: -1
  - m_Indexes: 340000003500000036000000350000003700000036000000
    m_SmoothingGroup: 0
    m_Uv:
      m_UseWorldSpace: 0
      m_FlipU: 0
      m_FlipV: 0
      m_SwapUV: 0
      m_Fill: 1
      m_Scale: {x: 1, y: 1}
      m_Offset: {x: 0, y: 0}
      m_Rotation: 0
      m_Anchor: 9
    m_Material: {fileID: 0}
    m_SubmeshIndex: 0
    m_ManualUV: 0
    elementGroup: -1
    m_TextureGroup: -1
  - m_Indexes: 38000000390000003a000000390000003b0000003a000000
    m_SmoothingGroup: 0
    m_Uv:
      m_UseWorldSpace: 0
      m_FlipU: 0
      m_FlipV: 0
      m_SwapUV: 0
      m_Fill: 1
      m_Scale: {x: 1, y: 1}
      m_Offset: {x: 0, y: 0}
      m_Rotation: 0
      m_Anchor: 9
    m_Material: {fileID: 0}
    m_SubmeshIndex: 0
    m_ManualUV: 0
    elementGroup: -1
    m_TextureGroup: -1
  - m_Indexes: 3c0000003d0000003e0000003d0000003f0000003e000000
    m_SmoothingGroup: 0
    m_Uv:
      m_UseWorldSpace: 0
      m_FlipU: 0
      m_FlipV: 0
      m_SwapUV: 0
      m_Fill: 1
      m_Scale: {x: 1, y: 1}
      m_Offset: {x: 0, y: 0}
      m_Rotation: 0
      m_Anchor: 9
    m_Material: {fileID: 0}
    m_SubmeshIndex: 0
    m_ManualUV: 0
    elementGroup: -1
    m_TextureGroup: -1
  - m_Indexes: 400000004100000042000000410000004300000042000000
    m_SmoothingGroup: 0
    m_Uv:
      m_UseWorldSpace: 0
      m_FlipU: 0
      m_FlipV: 0
      m_SwapUV: 0
      m_Fill: 1
      m_Scale: {x: 1, y: 1}
      m_Offset: {x: 0, y: 0}
      m_Rotation: 0
      m_Anchor: 9
    m_Material: {fileID: 0}
    m_SubmeshIndex: 0
    m_ManualUV: 0
    elementGroup: -1
    m_TextureGroup: -1
  - m_Indexes: 440000004500000046000000450000004700000046000000
    m_SmoothingGroup: 0
    m_Uv:
      m_UseWorldSpace: 0
      m_FlipU: 0
      m_FlipV: 0
      m_SwapUV: 0
      m_Fill: 1
      m_Scale: {x: 1, y: 1}
      m_Offset: {x: 0, y: 0}
      m_Rotation: 0
      m_Anchor: 9
    m_Material: {fileID: 0}
    m_SubmeshIndex: 0
    m_ManualUV: 0
    elementGroup: -1
    m_TextureGroup: -1
  - m_Indexes: 48000000490000004a000000490000004b0000004a000000
    m_SmoothingGroup: 0
    m_Uv:
      m_UseWorldSpace: 0
      m_FlipU: 0
      m_FlipV: 0
      m_SwapUV: 0
      m_Fill: 1
      m_Scale: {x: 1, y: 1}
      m_Offset: {x: 0, y: 0}
      m_Rotation: 0
      m_Anchor: 9
    m_Material: {fileID: 0}
    m_SubmeshIndex: 0
    m_ManualUV: 0
    elementGroup: -1
    m_TextureGroup: -1
  - m_Indexes: 4c0000004d0000004e0000004d0000004f0000004e000000
    m_SmoothingGroup: 0
    m_Uv:
      m_UseWorldSpace: 0
      m_FlipU: 0
      m_FlipV: 0
      m_SwapUV: 0
      m_Fill: 1
      m_Scale: {x: 1, y: 1}
      m_Offset: {x: 0, y: 0}
      m_Rotation: 0
      m_Anchor: 9
    m_Material: {fileID: 0}
    m_SubmeshIndex: 0
    m_ManualUV: 0
    elementGroup: -1
    m_TextureGroup: -1
  - m_Indexes: 500000005100000052000000510000005300000052000000
    m_SmoothingGroup: 0
    m_Uv:
      m_UseWorldSpace: 0
      m_FlipU: 0
      m_FlipV: 0
      m_SwapUV: 0
      m_Fill: 1
      m_Scale: {x: 1, y: 1}
      m_Offset: {x: 0, y: 0}
      m_Rotation: 0
      m_Anchor: 9
    m_Material: {fileID: 0}
    m_SubmeshIndex: 0
    m_ManualUV: 0
    elementGroup: -1
    m_TextureGroup: -1
  - m_Indexes: 540000005500000056000000550000005700000056000000
    m_SmoothingGroup: 0
    m_Uv:
      m_UseWorldSpace: 0
      m_FlipU: 0
      m_FlipV: 0
      m_SwapUV: 0
      m_Fill: 1
      m_Scale: {x: 1, y: 1}
      m_Offset: {x: 0, y: 0}
      m_Rotation: 0
      m_Anchor: 9
    m_Material: {fileID: 0}
    m_SubmeshIndex: 0
    m_ManualUV: 0
    elementGroup: -1
    m_TextureGroup: -1
  - m_Indexes: 58000000590000005a000000590000005b0000005a000000
    m_SmoothingGroup: 0
    m_Uv:
      m_UseWorldSpace: 0
      m_FlipU: 0
      m_FlipV: 0
      m_SwapUV: 0
      m_Fill: 1
      m_Scale: {x: 1, y: 1}
      m_Offset: {x: 0, y: 0}
      m_Rotation: 0
      m_Anchor: 9
    m_Material: {fileID: 0}
    m_SubmeshIndex: 0
    m_ManualUV: 0
    elementGroup: -1
    m_TextureGroup: -1
  - m_Indexes: 5c0000005d0000005e0000005d0000005f0000005e000000
    m_SmoothingGroup: 0
    m_Uv:
      m_UseWorldSpace: 0
      m_FlipU: 0
      m_FlipV: 0
      m_SwapUV: 0
      m_Fill: 1
      m_Scale: {x: 1, y: 1}
      m_Offset: {x: 0, y: 0}
      m_Rotation: 0
      m_Anchor: 9
    m_Material: {fileID: 0}
    m_SubmeshIndex: 0
    m_ManualUV: 0
    elementGroup: -1
    m_TextureGroup: -1
  - m_Indexes: 600000006100000062000000610000006300000062000000
    m_SmoothingGroup: 0
    m_Uv:
      m_UseWorldSpace: 0
      m_FlipU: 0
      m_FlipV: 0
      m_SwapUV: 0
      m_Fill: 1
      m_Scale: {x: 1, y: 1}
      m_Offset: {x: 0, y: 0}
      m_Rotation: 0
      m_Anchor: 9
    m_Material: {fileID: 0}
    m_SubmeshIndex: 0
    m_ManualUV: 0
    elementGroup: -1
    m_TextureGroup: -1
  - m_Indexes: 640000006500000066000000650000006700000066000000
    m_SmoothingGroup: 0
    m_Uv:
      m_UseWorldSpace: 0
      m_FlipU: 0
      m_FlipV: 0
      m_SwapUV: 0
      m_Fill: 1
      m_Scale: {x: 1, y: 1}
      m_Offset: {x: 0, y: 0}
      m_Rotation: 0
      m_Anchor: 9
    m_Material: {fileID: 0}
    m_SubmeshIndex: 0
    m_ManualUV: 0
    elementGroup: -1
    m_TextureGroup: -1
  - m_Indexes: 68000000690000006a000000690000006b0000006a000000
    m_SmoothingGroup: 0
    m_Uv:
      m_UseWorldSpace: 0
      m_FlipU: 0
      m_FlipV: 0
      m_SwapUV: 0
      m_Fill: 1
      m_Scale: {x: 1, y: 1}
      m_Offset: {x: 0, y: 0}
      m_Rotation: 0
      m_Anchor: 9
    m_Material: {fileID: 0}
    m_SubmeshIndex: 0
    m_ManualUV: 0
    elementGroup: -1
    m_TextureGroup: -1
  - m_Indexes: 6c0000006d0000006e0000006d0000006f0000006e000000
    m_SmoothingGroup: 0
    m_Uv:
      m_UseWorldSpace: 0
      m_FlipU: 0
      m_FlipV: 0
      m_SwapUV: 0
      m_Fill: 1
      m_Scale: {x: 1, y: 1}
      m_Offset: {x: 0, y: 0}
      m_Rotation: 0
      m_Anchor: 9
    m_Material: {fileID: 0}
    m_SubmeshIndex: 0
    m_ManualUV: 0
    elementGroup: -1
    m_TextureGroup: -1
  - m_Indexes: 700000007100000072000000710000007300000072000000
    m_SmoothingGroup: 0
    m_Uv:
      m_UseWorldSpace: 0
      m_FlipU: 0
      m_FlipV: 0
      m_SwapUV: 0
      m_Fill: 1
      m_Scale: {x: 1, y: 1}
      m_Offset: {x: 0, y: 0}
      m_Rotation: 0
      m_Anchor: 9
    m_Material: {fileID: 0}
    m_SubmeshIndex: 0
    m_ManualUV: 0
    elementGroup: -1
    m_TextureGroup: -1
  - m_Indexes: 740000007500000076000000750000007700000076000000
    m_SmoothingGroup: 0
    m_Uv:
      m_UseWorldSpace: 0
      m_FlipU: 0
      m_FlipV: 0
      m_SwapUV: 0
      m_Fill: 1
      m_Scale: {x: 1, y: 1}
      m_Offset: {x: 0, y: 0}
      m_Rotation: 0
      m_Anchor: 9
    m_Material: {fileID: 0}
    m_SubmeshIndex: 0
    m_ManualUV: 0
    elementGroup: -1
    m_TextureGroup: -1
  - m_Indexes: 78000000790000007a000000790000007b0000007a000000
    m_SmoothingGroup: 0
    m_Uv:
      m_UseWorldSpace: 0
      m_FlipU: 0
      m_FlipV: 0
      m_SwapUV: 0
      m_Fill: 1
      m_Scale: {x: 1, y: 1}
      m_Offset: {x: 0, y: 0}
      m_Rotation: 0
      m_Anchor: 9
    m_Material: {fileID: 0}
    m_SubmeshIndex: 0
    m_ManualUV: 0
    elementGroup: -1
    m_TextureGroup: -1
  - m_Indexes: 7c0000007d0000007e0000007d0000007f0000007e000000
    m_SmoothingGroup: 0
    m_Uv:
      m_UseWorldSpace: 0
      m_FlipU: 0
      m_FlipV: 0
      m_SwapUV: 0
      m_Fill: 1
      m_Scale: {x: 1, y: 1}
      m_Offset: {x: 0, y: 0}
      m_Rotation: 0
      m_Anchor: 9
    m_Material: {fileID: 0}
    m_SubmeshIndex: 0
    m_ManualUV: 0
    elementGroup: -1
    m_TextureGroup: -1
  - m_Indexes: 800000008100000082000000810000008300000082000000
    m_SmoothingGroup: 0
    m_Uv:
      m_UseWorldSpace: 0
      m_FlipU: 0
      m_FlipV: 0
      m_SwapUV: 0
      m_Fill: 1
      m_Scale: {x: 1, y: 1}
      m_Offset: {x: 0, y: 0}
      m_Rotation: 0
      m_Anchor: 9
    m_Material: {fileID: 0}
    m_SubmeshIndex: 0
    m_ManualUV: 0
    elementGroup: -1
    m_TextureGroup: -1
  - m_Indexes: 840000008500000086000000850000008700000086000000
    m_SmoothingGroup: 0
    m_Uv:
      m_UseWorldSpace: 0
      m_FlipU: 0
      m_FlipV: 0
      m_SwapUV: 0
      m_Fill: 1
      m_Scale: {x: 1, y: 1}
      m_Offset: {x: 0, y: 0}
      m_Rotation: 0
      m_Anchor: 9
    m_Material: {fileID: 0}
    m_SubmeshIndex: 0
    m_ManualUV: 0
    elementGroup: -1
    m_TextureGroup: -1
  m_SharedVertices:
  - m_Vertices: 000000000a0000004d000000
  - m_Vertices: 010000000c0000004c00000055000000
  - m_Vertices: 020000000800000048000000
  - m_Vertices: 030000000e0000004900000050000000
  - m_Vertices: 04000000110000004e00000057000000
  - m_Vertices: 050000000b0000004f000000
  - m_Vertices: 06000000130000004b00000052000000
  - m_Vertices: 07000000090000004a000000
  - m_Vertices: 0d00000014000000540000005d000000
  - m_Vertices: 0f000000160000005100000058000000
  - m_Vertices: 1000000019000000560000005f000000
  - m_Vertices: 120000001b000000530000005a000000
  - m_Vertices: 150000001c0000005c00000065000000
  - m_Vertices: 170000001e0000005900000060000000
  - m_Vertices: 18000000210000005e00000067000000
  - m_Vertices: 1a000000230000005b00000062000000
  - m_Vertices: 1d00000024000000640000006d000000
  - m_Vertices: 1f000000260000006100000068000000
  - m_Vertices: 2000000029000000660000006f000000
  - m_Vertices: 220000002b000000630000006a000000
  - m_Vertices: 250000002c0000006c00000075000000
  - m_Vertices: 270000002e0000006900000070000000
  - m_Vertices: 28000000310000006e00000077000000
  - m_Vertices: 2a000000330000006b00000072000000
  - m_Vertices: 2d00000034000000740000007d000000
  - m_Vertices: 2f000000360000007100000078000000
  - m_Vertices: 3000000039000000760000007f000000
  - m_Vertices: 320000003b000000730000007a000000
  - m_Vertices: 350000003c0000007c00000085000000
  - m_Vertices: 370000003e0000007900000080000000
  - m_Vertices: 38000000410000007e00000087000000
  - m_Vertices: 3a000000430000007b00000082000000
  - m_Vertices: 3d0000004700000084000000
  - m_Vertices: 3f0000004500000081000000
  - m_Vertices: 400000004600000086000000
  - m_Vertices: 420000004400000083000000
  m_SharedTextures: []
  m_Positions:
  - {x: 0, y: 0, z: 0}
  - {x: -0.17600727, y: 1.7870274, z: 0}
  - {x: 0, y: 0, z: 0.1}
  - {x: -0.17600727, y: 1.7870274, z: 0.1}
  - {x: -0.274086, y: 1.7675183, z: 0}
  - {x: -0.10000038, y: 0, z: 0}
  - {x: -0.274086, y: 1.7675183, z: 0.1}
  - {x: -0.10000038, y: 0, z: 0.1}
  - {x: 0, y: 0, z: 0.1}
  - {x: -0.10000038, y: 0, z: 0.1}
  - {x: 0, y: 0, z: 0}
  - {x: -0.10000038, y: 0, z: 0}
  - {x: -0.17600727, y: 1.7870274, z: 0}
  - {x: -0.6972637, y: 3.5053804, z: 0}
  - {x: -0.17600727, y: 1.7870274, z: 0.1}
  - {x: -0.6972637, y: 3.5053804, z: 0.1}
  - {x: -0.7896519, y: 3.4671118, z: 0}
  - {x: -0.274086, y: 1.7675183, z: 0}
  - {x: -0.7896519, y: 3.4671118, z: 0.1}
  - {x: -0.274086, y: 1.7675183, z: 0.1}
  - {x: -0.6972637, y: 3.5053804, z: 0}
  - {x: -1.5437384, y: 5.0890236, z: 0}
  - {x: -0.6972637, y: 3.5053804, z: 0.1}
  - {x: -1.5437384, y: 5.0890236, z: 0.1}
  - {x: -1.6268859, y: 5.0334663, z: 0}
  - {x: -0.7896519, y: 3.4671118, z: 0}
  - {x: -1.6268859, y: 5.0334663, z: 0.1}
  - {x: -0.7896519, y: 3.4671118, z: 0.1}
  - {x: -1.5437384, y: 5.0890236, z: 0}
  - {x: -2.6829019, y: 6.477098, z: 0}
  - {x: -1.5437384, y: 5.0890236, z: 0.1}
  - {x: -2.6829019, y: 6.477098, z: 0.1}
  - {x: -2.753613, y: 6.406387, z: 0}
  - {x: -1.6268859, y: 5.0334663, z: 0}
  - {x: -2.753613, y: 6.406387, z: 0.1}
  - {x: -1.6268859, y: 5.0334663, z: 0.1}
  - {x: -2.6829019, y: 6.477098, z: 0}
  - {x: -4.0709763, y: 7.6162615, z: 0}
  - {x: -2.6829019, y: 6.477098, z: 0.1}
  - {x: -4.0709763, y: 7.6162615, z: 0.1}
  - {x: -4.1265335, y: 7.533114, z: 0}
  - {x: -2.753613, y: 6.406387, z: 0}
  - {x: -4.1265335, y: 7.533114, z: 0.1}
  - {x: -2.753613, y: 6.406387, z: 0.1}
  - {x: -4.0709763, y: 7.6162615, z: 0}
  - {x: -5.6546197, y: 8.462736, z: 0}
  - {x: -4.0709763, y: 7.6162615, z: 0.1}
  - {x: -5.6546197, y: 8.462736, z: 0.1}
  - {x: -5.6928883, y: 8.370348, z: 0}
  - {x: -4.1265335, y: 7.533114, z: 0}
  - {x: -5.6928883, y: 8.370348, z: 0.1}
  - {x: -4.1265335, y: 7.533114, z: 0.1}
  - {x: -5.6546197, y: 8.462736, z: 0}
  - {x: -7.3729725, y: 8.983993, z: 0}
  - {x: -5.6546197, y: 8.462736, z: 0.1}
  - {x: -7.3729725, y: 8.983993, z: 0.1}
  - {x: -7.3924813, y: 8.885914, z: 0}
  - {x: -5.6928883, y: 8.370348, z: 0}
  - {x: -7.3924813, y: 8.885914, z: 0.1}
  - {x: -5.6928883, y: 8.370348, z: 0.1}
  - {x: -7.3729725, y: 8.983993, z: 0}
  - {x: -9.16, y: 9.16, z: 0}
  - {x: -7.3729725, y: 8.983993, z: 0.1}
  - {x: -9.16, y: 9.16, z: 0.1}
  - {x: -9.16, y: 9.059999, z: 0}
  - {x: -7.3924813, y: 8.885914, z: 0}
  - {x: -9.16, y: 9.059999, z: 0.1}
  - {x: -7.3924813, y: 8.885914, z: 0.1}
  - {x: -9.16, y: 9.059999, z: 0.1}
  - {x: -9.16, y: 9.16, z: 0.1}
  - {x: -9.16, y: 9.059999, z: 0}
  - {x: -9.16, y: 9.16, z: 0}
  - {x: 0, y: 0, z: 0.1}
  - {x: -0.17600727, y: 1.7870274, z: 0.1}
  - {x: -0.10000038, y: 0, z: 0.1}
  - {x: -0.274086, y: 1.7675183, z: 0.1}
  - {x: -0.17600727, y: 1.7870274, z: 0}
  - {x: 0, y: 0, z: 0}
  - {x: -0.274086, y: 1.7675183, z: 0}
  - {x: -0.10000038, y: 0, z: 0}
  - {x: -0.17600727, y: 1.7870274, z: 0.1}
  - {x: -0.6972637, y: 3.5053804, z: 0.1}
  - {x: -0.274086, y: 1.7675183, z: 0.1}
  - {x: -0.7896519, y: 3.4671118, z: 0.1}
  - {x: -0.6972637, y: 3.5053804, z: 0}
  - {x: -0.17600727, y: 1.7870274, z: 0}
  - {x: -0.7896519, y: 3.4671118, z: 0}
  - {x: -0.274086, y: 1.7675183, z: 0}
  - {x: -0.6972637, y: 3.5053804, z: 0.1}
  - {x: -1.5437384, y: 5.0890236, z: 0.1}
  - {x: -0.7896519, y: 3.4671118, z: 0.1}
  - {x: -1.6268859, y: 5.0334663, z: 0.1}
  - {x: -1.5437384, y: 5.0890236, z: 0}
  - {x: -0.6972637, y: 3.5053804, z: 0}
  - {x: -1.6268859, y: 5.0334663, z: 0}
  - {x: -0.7896519, y: 3.4671118, z: 0}
  - {x: -1.5437384, y: 5.0890236, z: 0.1}
  - {x: -2.6829019, y: 6.477098, z: 0.1}
  - {x: -1.6268859, y: 5.0334663, z: 0.1}
  - {x: -2.753613, y: 6.406387, z: 0.1}
  - {x: -2.6829019, y: 6.477098, z: 0}
  - {x: -1.5437384, y: 5.0890236, z: 0}
  - {x: -2.753613, y: 6.406387, z: 0}
  - {x: -1.6268859, y: 5.0334663, z: 0}
  - {x: -2.6829019, y: 6.477098, z: 0.1}
  - {x: -4.0709763, y: 7.6162615, z: 0.1}
  - {x: -2.753613, y: 6.406387, z: 0.1}
  - {x: -4.1265335, y: 7.533114, z: 0.1}
  - {x: -4.0709763, y: 7.6162615, z: 0}
  - {x: -2.6829019, y: 6.477098, z: 0}
  - {x: -4.1265335, y: 7.533114, z: 0}
  - {x: -2.753613, y: 6.406387, z: 0}
  - {x: -4.0709763, y: 7.6162615, z: 0.1}
  - {x: -5.6546197, y: 8.462736, z: 0.1}
  - {x: -4.1265335, y: 7.533114, z: 0.1}
  - {x: -5.6928883, y: 8.370348, z: 0.1}
  - {x: -5.6546197, y: 8.462736, z: 0}
  - {x: -4.0709763, y: 7.6162615, z: 0}
  - {x: -5.6928883, y: 8.370348, z: 0}
  - {x: -4.1265335, y: 7.533114, z: 0}
  - {x: -5.6546197, y: 8.462736, z: 0.1}
  - {x: -7.3729725, y: 8.983993, z: 0.1}
  - {x: -5.6928883, y: 8.370348, z: 0.1}
  - {x: -7.3924813, y: 8.885914, z: 0.1}
  - {x: -7.3729725, y: 8.983993, z: 0}
  - {x: -5.6546197, y: 8.462736, z: 0}
  - {x: -7.3924813, y: 8.885914, z: 0}
  - {x: -5.6928883, y: 8.370348, z: 0}
  - {x: -7.3729725, y: 8.983993, z: 0.1}
  - {x: -9.16, y: 9.16, z: 0.1}
  - {x: -7.3924813, y: 8.885914, z: 0.1}
  - {x: -9.16, y: 9.059999, z: 0.1}
  - {x: -9.16, y: 9.16, z: 0}
  - {x: -7.3729725, y: 8.983993, z: 0}
  - {x: -9.16, y: 9.059999, z: 0}
  - {x: -7.3924813, y: 8.885914, z: 0}
  m_Textures0:
  - {x: 0, y: 0}
  - {x: 0, y: 1.7956741}
  - {x: 0.1, y: 0}
  - {x: 0.1, y: 1.7956741}
  - {x: 0, y: 1.7858723}
  - {x: 0, y: 0.009801767}
  - {x: -0.1, y: 1.7858723}
  - {x: -0.1, y: 0.009801767}
  - {x: 0, y: 0.1}
  - {x: 0.10000038, y: 0.1}
  - {x: 0, y: 0}
  - {x: 0.10000038, y: 0}
  - {x: 0, y: 1.7611709}
  - {x: 0, y: 3.556845}
  - {x: 0.1, y: 1.7611709}
  - {x: 0.1, y: 3.556845}
  - {x: 0, y: 3.547043}
  - {x: 0, y: 1.7709725}
  - {x: -0.1, y: 3.547043}
  - {x: -0.1, y: 1.7709725}
  - {x: 0, y: 3.4201574}
  - {x: 0, y: 5.2158313}
  - {x: 0.1, y: 3.4201574}
  - {x: 0.1, y: 5.2158313}
  - {x: 0, y: 5.2060294}
  - {x: 0, y: 3.4299588}
  - {x: -0.1, y: 5.2060294}
  - {x: -0.1, y: 3.4299588}
  - {x: 0, y: 4.9132056}
  - {x: 0, y: 6.7088795}
  - {x: 0.1, y: 4.9132056}
  - {x: 0.1, y: 6.7088795}
  - {x: 0, y: 6.699077}
  - {x: 0, y: 4.9230075}
  - {x: -0.1, y: 6.699077}
  - {x: -0.1, y: 4.9230075}
  - {x: -6.1829395, y: 0}
  - {x: -7.978613, y: 0}
  - {x: -6.1829395, y: 0.1}
  - {x: -7.978613, y: 0.1}
  - {x: 7.968811, y: 0}
  - {x: 6.192741, y: 0}
  - {x: 7.968811, y: 0.1}
  - {x: 6.192741, y: 0.1}
  - {x: -7.1805606, y: 0}
  - {x: -8.976234, y: 0}
  - {x: -7.1805606, y: 0.1}
  - {x: -8.976234, y: 0.1}
  - {x: 8.9664345, y: 0}
  - {x: 7.190363, y: 0}
  - {x: 8.9664345, y: 0.1}
  - {x: 7.190363, y: 0.1}
  - {x: -7.8677354, y: 0}
  - {x: -9.663409, y: 0}
  - {x: -7.8677354, y: 0.1}
  - {x: -9.663409, y: 0.1}
  - {x: 9.653608, y: 0}
  - {x: 7.877538, y: 0}
  - {x: 9.653608, y: 0.1}
  - {x: 7.877538, y: 0.1}
  - {x: -8.218057, y: 0}
  - {x: -10.013731, y: 0}
  - {x: -8.218057, y: 0.1}
  - {x: -10.013731, y: 0.1}
  - {x: 10.003928, y: 0}
  - {x: 8.227858, y: 0}
  - {x: 10.003928, y: 0.1}
  - {x: 8.227858, y: 0.1}
  - {x: -0.1, y: 9.059999}
  - {x: -0.1, y: 9.16}
  - {x: 0, y: 9.059999}
  - {x: 0, y: 9.16}
  - {x: 0, y: 0}
  - {x: 0.17600727, y: 1.7870274}
  - {x: 0.10000038, y: 0}
  - {x: 0.274086, y: 1.7675183}
  - {x: -0.17600727, y: 1.7870274}
  - {x: 0, y: 0}
  - {x: -0.274086, y: 1.7675183}
  - {x: -0.10000038, y: 0}
  - {x: 0.17600727, y: 1.7870274}
  - {x: 0.6972637, y: 3.5053804}
  - {x: 0.274086, y: 1.7675183}
  - {x: 0.7896519, y: 3.4671118}
  - {x: -0.6972637, y: 3.5053804}
  - {x: -0.17600727, y: 1.7870274}
  - {x: -0.7896519, y: 3.4671118}
  - {x: -0.274086, y: 1.7675183}
  - {x: 0.6972637, y: 3.5053804}
  - {x: 1.5437384, y: 5.0890236}
  - {x: 0.7896519, y: 3.4671118}
  - {x: 1.6268859, y: 5.0334663}
  - {x: -1.5437384, y: 5.0890236}
  - {x: -0.6972637, y: 3.5053804}
  - {x: -1.6268859, y: 5.0334663}
  - {x: -0.7896519, y: 3.4671118}
  - {x: 1.5437384, y: 5.0890236}
  - {x: 2.6829019, y: 6.477098}
  - {x: 1.6268859, y: 5.0334663}
  - {x: 2.753613, y: 6.406387}
  - {x: -2.6829019, y: 6.477098}
  - {x: -1.5437384, y: 5.0890236}
  - {x: -2.753613, y: 6.406387}
  - {x: -1.6268859, y: 5.0334663}
  - {x: 2.6829019, y: 6.477098}
  - {x: 4.0709763, y: 7.6162615}
  - {x: 2.753613, y: 6.406387}
  - {x: 4.1265335, y: 7.533114}
  - {x: -4.0709763, y: 7.6162615}
  - {x: -2.6829019, y: 6.477098}
  - {x: -4.1265335, y: 7.533114}
  - {x: -2.753613, y: 6.406387}
  - {x: 4.0709763, y: 7.6162615}
  - {x: 5.6546197, y: 8.462736}
  - {x: 4.1265335, y: 7.533114}
  - {x: 5.6928883, y: 8.370348}
  - {x: -5.6546197, y: 8.462736}
  - {x: -4.0709763, y: 7.6162615}
  - {x: -5.6928883, y: 8.370348}
  - {x: -4.1265335, y: 7.533114}
  - {x: 5.6546197, y: 8.462736}
  - {x: 7.3729725, y: 8.983993}
  - {x: 5.6928883, y: 8.370348}
  - {x: 7.3924813, y: 8.885914}
  - {x: -7.3729725, y: 8.983993}
  - {x: -5.6546197, y: 8.462736}
  - {x: -7.3924813, y: 8.885914}
  - {x: -5.6928883, y: 8.370348}
  - {x: 7.3729725, y: 8.983993}
  - {x: 9.16, y: 9.16}
  - {x: 7.3924813, y: 8.885914}
  - {x: 9.16, y: 9.059999}
  - {x: -9.16, y: 9.16}
  - {x: -7.3729725, y: 8.983993}
  - {x: -9.16, y: 9.059999}
  - {x: -7.3924813, y: 8.885914}
  m_Textures2: []
  m_Textures3: []
  m_Tangents:
  - {x: 0, y: 0, z: 1, w: -1}
  - {x: 0, y: 0, z: 1, w: -1}
  - {x: 0, y: 0, z: 1, w: -1}
  - {x: 0, y: 0, z: 1, w: -1}
  - {x: 0, y: 0, z: -1, w: -1}
  - {x: 0, y: 0, z: -1, w: -1}
  - {x: 0, y: 0, z: -1, w: -1}
  - {x: 0, y: 0, z: -1, w: -1}
  - {x: -1, y: 0, z: 0, w: -1}
  - {x: -1, y: 0, z: 0, w: -1}
  - {x: -1, y: 0, z: 0, w: -1}
  - {x: -1, y: 0, z: 0, w: -1}
  - {x: 0, y: 0, z: 1, w: -1}
  - {x: 0, y: 0, z: 1, w: -1}
  - {x: 0, y: 0, z: 1, w: -1}
  - {x: 0, y: 0, z: 1, w: -1}
  - {x: 0, y: 0, z: -1, w: -1}
  - {x: 0, y: 0, z: -1, w: -1}
  - {x: 0, y: 0, z: -1, w: -1}
  - {x: 0, y: 0, z: -1, w: -1}
  - {x: 0, y: 0, z: 1, w: -1}
  - {x: 0, y: 0, z: 1, w: -1}
  - {x: 0, y: 0, z: 1, w: -1}
  - {x: 0, y: 0, z: 1, w: -1}
  - {x: 0, y: 0, z: -1, w: -1}
  - {x: 0, y: 0, z: -1, w: -1}
  - {x: 0, y: 0, z: -1, w: -1}
  - {x: 0, y: 0, z: -1, w: -1}
  - {x: 0, y: 0, z: 1, w: -1}
  - {x: 0, y: 0, z: 1, w: -1}
  - {x: 0, y: 0, z: 1, w: -1}
  - {x: 0, y: 0, z: 1, w: -1}
  - {x: 0, y: 0, z: -1, w: -1}
  - {x: 0, y: 0, z: -1, w: -1}
  - {x: 0, y: 0, z: -1, w: -1}
  - {x: 0, y: 0, z: -1, w: -1}
  - {x: 0.7730104, y: -0.63439333, z: 0, w: -1}
  - {x: 0.7730104, y: -0.63439333, z: 0, w: -1}
  - {x: 0.7730104, y: -0.63439333, z: 0, w: -1}
  - {x: 0.7730104, y: -0.63439333, z: 0, w: -1}
  - {x: -0.77301043, y: 0.6343934, z: 0, w: -1}
  - {x: -0.77301043, y: 0.6343934, z: 0, w: -1}
  - {x: -0.77301043, y: 0.6343934, z: 0, w: -1}
  - {x: -0.77301043, y: 0.6343934, z: 0, w: -1}
  - {x: 0.88192135, y: -0.4713966, z: 0, w: -1}
  - {x: 0.88192135, y: -0.4713966, z: 0, w: -1}
  - {x: 0.88192135, y: -0.4713966, z: 0, w: -1}
  - {x: 0.88192135, y: -0.4713966, z: 0, w: -1}
  - {x: -0.8819213, y: 0.47139674, z: 0, w: -1}
  - {x: -0.8819213, y: 0.47139674, z: 0, w: -1}
  - {x: -0.8819213, y: 0.47139674, z: 0, w: -1}
  - {x: -0.8819213, y: 0.47139674, z: 0, w: -1}
  - {x: 0.9569404, y: -0.2902846, z: 0, w: -1}
  - {x: 0.9569404, y: -0.2902846, z: 0, w: -1}
  - {x: 0.9569404, y: -0.2902846, z: 0, w: -1}
  - {x: 0.9569404, y: -0.2902846, z: 0, w: -1}
  - {x: -0.95694035, y: 0.29028466, z: 0, w: -1}
  - {x: -0.95694035, y: 0.29028466, z: 0, w: -1}
  - {x: -0.95694035, y: 0.29028466, z: 0, w: -1}
  - {x: -0.95694035, y: 0.29028466, z: 0, w: -1}
  - {x: 0.9951847, y: -0.09801738, z: 0, w: -1}
  - {x: 0.9951847, y: -0.09801738, z: 0, w: -1}
  - {x: 0.9951847, y: -0.09801738, z: 0, w: -1}
  - {x: 0.9951847, y: -0.09801738, z: 0, w: -1}
  - {x: -0.9951847, y: 0.098017275, z: 0, w: -1}
  - {x: -0.9951847, y: 0.098017275, z: 0, w: -1}
  - {x: -0.9951847, y: 0.098017275, z: 0, w: -1}
  - {x: -0.9951847, y: 0.098017275, z: 0, w: -1}
  - {x: 0, y: 0, z: -1, w: -1}
  - {x: 0, y: 0, z: -1, w: -1}
  - {x: 0, y: 0, z: -1, w: -1}
  - {x: 0, y: 0, z: -1, w: -1}
  - {x: -1, y: 0, z: 0, w: -1}
  - {x: -1, y: 0, z: 0, w: -1}
  - {x: -1, y: 0, z: 0, w: -1}
  - {x: -1, y: 0, z: 0, w: -1}
  - {x: 1, y: 0, z: 0, w: -1}
  - {x: 1, y: 0, z: 0, w: -1}
  - {x: 1, y: 0, z: 0, w: -1}
  - {x: 1, y: 0, z: 0, w: -1}
  - {x: -1, y: 0, z: 0, w: -1}
  - {x: -1, y: 0, z: 0, w: -1}
  - {x: -1, y: 0, z: 0, w: -1}
  - {x: -1, y: 0, z: 0, w: -1}
  - {x: 1, y: 0, z: 0, w: -1}
  - {x: 1, y: 0, z: 0, w: -1}
  - {x: 1, y: 0, z: 0, w: -1}
  - {x: 1, y: 0, z: 0, w: -1}
  - {x: -1, y: 0, z: 0, w: -1}
  - {x: -1, y: 0, z: 0, w: -1}
  - {x: -1, y: 0, z: 0, w: -1}
  - {x: -1, y: 0, z: 0, w: -1}
  - {x: 1, y: 0, z: 0, w: -1}
  - {x: 1, y: 0, z: 0, w: -1}
  - {x: 1, y: 0, z: 0, w: -1}
  - {x: 1, y: 0, z: 0, w: -1}
  - {x: -1, y: 0, z: 0, w: -1}
  - {x: -1, y: 0, z: 0, w: -1}
  - {x: -1, y: 0, z: 0, w: -1}
  - {x: -1, y: 0, z: 0, w: -1}
  - {x: 1, y: 0, z: 0, w: -1}
  - {x: 1, y: 0, z: 0, w: -1}
  - {x: 1, y: 0, z: 0, w: -1}
  - {x: 1, y: 0, z: 0, w: -1}
  - {x: -1, y: 0, z: 0, w: -1}
  - {x: -1, y: 0, z: 0, w: -1}
  - {x: -1, y: 0, z: 0, w: -1}
  - {x: -1, y: 0, z: 0, w: -1}
  - {x: 1, y: 0, z: 0, w: -1}
  - {x: 1, y: 0, z: 0, w: -1}
  - {x: 1, y: 0, z: 0, w: -1}
  - {x: 1, y: 0, z: 0, w: -1}
  - {x: -1, y: 0, z: 0, w: -1}
  - {x: -1, y: 0, z: 0, w: -1}
  - {x: -1, y: 0, z: 0, w: -1}
  - {x: -1, y: 0, z: 0, w: -1}
  - {x: 1, y: 0, z: 0, w: -1}
  - {x: 1, y: 0, z: 0, w: -1}
  - {x: 1, y: 0, z: 0, w: -1}
  - {x: 1, y: 0, z: 0, w: -1}
  - {x: -1, y: 0, z: 0, w: -1}
  - {x: -1, y: 0, z: 0, w: -1}
  - {x: -1, y: 0, z: 0, w: -1}
  - {x: -1, y: 0, z: 0, w: -1}
  - {x: 1, y: 0, z: 0, w: -1}
  - {x: 1, y: 0, z: 0, w: -1}
  - {x: 1, y: 0, z: 0, w: -1}
  - {x: 1, y: 0, z: 0, w: -1}
  - {x: -1, y: 0, z: 0, w: -1}
  - {x: -1, y: 0, z: 0, w: -1}
  - {x: -1, y: 0, z: 0, w: -1}
  - {x: -1, y: 0, z: 0, w: -1}
  - {x: 1, y: 0, z: 0, w: -1}
  - {x: 1, y: 0, z: 0, w: -1}
  - {x: 1, y: 0, z: 0, w: -1}
  - {x: 1, y: 0, z: 0, w: -1}
  m_Colors: []
  m_UnwrapParameters:
    m_HardAngle: 88
    m_PackMargin: 20
    m_AngleError: 8
    m_AreaError: 15
  m_PreserveMeshAssetOnDestroy: 0
  assetGuid: 
  m_IsSelectable: 1
  m_SelectedFaces: 
  m_SelectedEdges: []
  m_SelectedVertices: 
--- !u!64 &3597851385423853748
MeshCollider:
  m_ObjectHideFlags: 0
  m_CorrespondingSourceObject: {fileID: 0}
  m_PrefabInstance: {fileID: 0}
  m_PrefabAsset: {fileID: 0}
  m_GameObject: {fileID: 3306011374966734476}
  m_Material: {fileID: 0}
  m_IsTrigger: 0
  m_Enabled: 1
  serializedVersion: 3
  m_Convex: 0
  m_CookingOptions: 14
  m_Mesh: {fileID: 0}
