%YAML 1.1
%TAG !u! tag:unity3d.com,2011:
--- !u!1 &4235846492882898682
GameObject:
  m_ObjectHideFlags: 0
  m_CorrespondingSourceObject: {fileID: 0}
  m_PrefabInstance: {fileID: 0}
  m_PrefabAsset: {fileID: 0}
  serializedVersion: 6
  m_Component:
  - component: {fileID: 4688874244982641980}
  - component: {fileID: 532298795445484967}
  - component: {fileID: 8716086551149750878}
  - component: {fileID: 5187275722455491284}
  - component: {fileID: 1315263612409126021}
  m_Layer: 0
  m_Name: Courant_base
  m_TagString: Untagged
  m_Icon: {fileID: 0}
  m_NavMeshLayer: 0
  m_StaticEditorFlags: 0
  m_IsActive: 1
--- !u!4 &4688874244982641980
Transform:
  m_ObjectHideFlags: 0
  m_CorrespondingSourceObject: {fileID: 0}
  m_PrefabInstance: {fileID: 0}
  m_PrefabAsset: {fileID: 0}
  m_GameObject: {fileID: 4235846492882898682}
  m_LocalRotation: {x: 0, y: 0, z: 0, w: 1}
  m_LocalPosition: {x: 33.185284, y: -35.981834, z: -17.388105}
  m_LocalScale: {x: 1, y: 1, z: 1}
  m_Children: []
  m_Father: {fileID: 0}
  m_RootOrder: 0
  m_LocalEulerAnglesHint: {x: 0, y: 0, z: 0}
--- !u!33 &532298795445484967
MeshFilter:
  m_ObjectHideFlags: 0
  m_CorrespondingSourceObject: {fileID: 0}
  m_PrefabInstance: {fileID: 0}
  m_PrefabAsset: {fileID: 0}
  m_GameObject: {fileID: 4235846492882898682}
  m_Mesh: {fileID: 0}
--- !u!23 &8716086551149750878
MeshRenderer:
  m_ObjectHideFlags: 0
  m_CorrespondingSourceObject: {fileID: 0}
  m_PrefabInstance: {fileID: 0}
  m_PrefabAsset: {fileID: 0}
  m_GameObject: {fileID: 4235846492882898682}
  m_Enabled: 1
  m_CastShadows: 1
  m_ReceiveShadows: 1
  m_DynamicOccludee: 1
  m_MotionVectors: 1
  m_LightProbeUsage: 1
  m_ReflectionProbeUsage: 1
  m_RenderingLayerMask: 1
  m_RendererPriority: 0
  m_Materials:
  - {fileID: 2100000, guid: 3b1c6a827cd14e440be10c569ee30ec5, type: 2}
  m_StaticBatchInfo:
    firstSubMesh: 0
    subMeshCount: 0
  m_StaticBatchRoot: {fileID: 0}
  m_ProbeAnchor: {fileID: 0}
  m_LightProbeVolumeOverride: {fileID: 0}
  m_ScaleInLightmap: 1
  m_PreserveUVs: 0
  m_IgnoreNormalsForChartDetection: 0
  m_ImportantGI: 0
  m_StitchLightmapSeams: 0
  m_SelectedEditorRenderState: 2
  m_MinimumChartSize: 4
  m_AutoUVMaxDistance: 0.5
  m_AutoUVMaxAngle: 89
  m_LightmapParameters: {fileID: 0}
  m_SortingLayerID: 0
  m_SortingLayer: 0
  m_SortingOrder: 0
--- !u!114 &5187275722455491284
MonoBehaviour:
  m_ObjectHideFlags: 0
  m_CorrespondingSourceObject: {fileID: 0}
  m_PrefabInstance: {fileID: 0}
  m_PrefabAsset: {fileID: 0}
  m_GameObject: {fileID: 4235846492882898682}
  m_Enabled: 1
  m_EditorHideFlags: 0
  m_Script: {fileID: 11500000, guid: 8233d90336aea43098adf6dbabd606a2, type: 3}
  m_Name: 
  m_EditorClassIdentifier: 
  m_MeshFormatVersion: 1
  m_Faces:
  - m_Indexes: 000000000100000002000000010000000300000002000000
    m_SmoothingGroup: 0
    m_Uv:
      m_UseWorldSpace: 0
      m_FlipU: 0
      m_FlipV: 0
      m_SwapUV: 0
      m_Fill: 1
      m_Scale: {x: 1, y: 1}
      m_Offset: {x: 0, y: 0}
      m_Rotation: 0
      m_Anchor: 9
    m_Material: {fileID: 0}
    m_SubmeshIndex: 0
    m_ManualUV: 0
    elementGroup: -1
    m_TextureGroup: -1
  - m_Indexes: 040000000500000006000000050000000700000006000000
    m_SmoothingGroup: 0
    m_Uv:
      m_UseWorldSpace: 0
      m_FlipU: 0
      m_FlipV: 0
      m_SwapUV: 0
      m_Fill: 1
      m_Scale: {x: 1, y: 1}
      m_Offset: {x: 0, y: 0}
      m_Rotation: 0
      m_Anchor: 9
    m_Material: {fileID: 0}
    m_SubmeshIndex: 0
    m_ManualUV: 0
    elementGroup: -1
    m_TextureGroup: -1
  - m_Indexes: 08000000090000000a000000090000000b0000000a000000
    m_SmoothingGroup: 0
    m_Uv:
      m_UseWorldSpace: 0
      m_FlipU: 0
      m_FlipV: 0
      m_SwapUV: 0
      m_Fill: 1
      m_Scale: {x: 1, y: 1}
      m_Offset: {x: 0, y: 0}
      m_Rotation: 0
      m_Anchor: 9
    m_Material: {fileID: 0}
    m_SubmeshIndex: 0
    m_ManualUV: 0
    elementGroup: -1
    m_TextureGroup: -1
  - m_Indexes: 0c0000000d0000000e0000000d0000000f0000000e000000
    m_SmoothingGroup: 0
    m_Uv:
      m_UseWorldSpace: 0
      m_FlipU: 0
      m_FlipV: 0
      m_SwapUV: 0
      m_Fill: 1
      m_Scale: {x: 1, y: 1}
      m_Offset: {x: 0, y: 0}
      m_Rotation: 0
      m_Anchor: 9
    m_Material: {fileID: 0}
    m_SubmeshIndex: 0
    m_ManualUV: 0
    elementGroup: -1
    m_TextureGroup: -1
  - m_Indexes: 100000001100000012000000110000001300000012000000
    m_SmoothingGroup: 0
    m_Uv:
      m_UseWorldSpace: 0
      m_FlipU: 0
      m_FlipV: 0
      m_SwapUV: 0
      m_Fill: 1
      m_Scale: {x: 1, y: 1}
      m_Offset: {x: 0, y: 0}
      m_Rotation: 0
      m_Anchor: 9
    m_Material: {fileID: 0}
    m_SubmeshIndex: 0
    m_ManualUV: 0
    elementGroup: -1
    m_TextureGroup: -1
  - m_Indexes: 140000001500000016000000150000001700000016000000
    m_SmoothingGroup: 0
    m_Uv:
      m_UseWorldSpace: 0
      m_FlipU: 0
      m_FlipV: 0
      m_SwapUV: 0
      m_Fill: 1
      m_Scale: {x: 1, y: 1}
      m_Offset: {x: 0, y: 0}
      m_Rotation: 0
      m_Anchor: 9
    m_Material: {fileID: 0}
    m_SubmeshIndex: 0
    m_ManualUV: 0
    elementGroup: -1
    m_TextureGroup: -1
  - m_Indexes: 18000000190000001a000000190000001b0000001a000000
    m_SmoothingGroup: 0
    m_Uv:
      m_UseWorldSpace: 0
      m_FlipU: 0
      m_FlipV: 0
      m_SwapUV: 0
      m_Fill: 1
      m_Scale: {x: 1, y: 1}
      m_Offset: {x: 0, y: 0}
      m_Rotation: 0
      m_Anchor: 9
    m_Material: {fileID: 0}
    m_SubmeshIndex: 0
    m_ManualUV: 0
    elementGroup: -1
    m_TextureGroup: -1
  - m_Indexes: 1c0000001d0000001e0000001d0000001f0000001e000000
    m_SmoothingGroup: 0
    m_Uv:
      m_UseWorldSpace: 0
      m_FlipU: 0
      m_FlipV: 0
      m_SwapUV: 0
      m_Fill: 1
      m_Scale: {x: 1, y: 1}
      m_Offset: {x: 0, y: 0}
      m_Rotation: 0
      m_Anchor: 9
    m_Material: {fileID: 0}
    m_SubmeshIndex: 0
    m_ManualUV: 0
    elementGroup: -1
    m_TextureGroup: -1
  - m_Indexes: 200000002100000022000000210000002300000022000000
    m_SmoothingGroup: 0
    m_Uv:
      m_UseWorldSpace: 0
      m_FlipU: 0
      m_FlipV: 0
      m_SwapUV: 0
      m_Fill: 1
      m_Scale: {x: 1, y: 1}
      m_Offset: {x: 0, y: 0}
      m_Rotation: 0
      m_Anchor: 9
    m_Material: {fileID: 0}
    m_SubmeshIndex: 0
    m_ManualUV: 0
    elementGroup: -1
    m_TextureGroup: -1
  - m_Indexes: 240000002500000026000000250000002700000026000000
    m_SmoothingGroup: 0
    m_Uv:
      m_UseWorldSpace: 0
      m_FlipU: 0
      m_FlipV: 0
      m_SwapUV: 0
      m_Fill: 1
      m_Scale: {x: 1, y: 1}
      m_Offset: {x: 0, y: 0}
      m_Rotation: 0
      m_Anchor: 9
    m_Material: {fileID: 0}
    m_SubmeshIndex: 0
    m_ManualUV: 0
    elementGroup: -1
    m_TextureGroup: -1
  - m_Indexes: 28000000290000002a000000290000002b0000002a000000
    m_SmoothingGroup: 0
    m_Uv:
      m_UseWorldSpace: 0
      m_FlipU: 0
      m_FlipV: 0
      m_SwapUV: 0
      m_Fill: 1
      m_Scale: {x: 1, y: 1}
      m_Offset: {x: 0, y: 0}
      m_Rotation: 0
      m_Anchor: 9
    m_Material: {fileID: 0}
    m_SubmeshIndex: 0
    m_ManualUV: 0
    elementGroup: -1
    m_TextureGroup: -1
  - m_Indexes: 2c0000002d0000002e0000002d0000002f0000002e000000
    m_SmoothingGroup: 0
    m_Uv:
      m_UseWorldSpace: 0
      m_FlipU: 0
      m_FlipV: 0
      m_SwapUV: 0
      m_Fill: 1
      m_Scale: {x: 1, y: 1}
      m_Offset: {x: 0, y: 0}
      m_Rotation: 0
      m_Anchor: 9
    m_Material: {fileID: 0}
    m_SubmeshIndex: 0
    m_ManualUV: 0
    elementGroup: -1
    m_TextureGroup: -1
  - m_Indexes: 300000003100000032000000310000003300000032000000
    m_SmoothingGroup: 0
    m_Uv:
      m_UseWorldSpace: 0
      m_FlipU: 0
      m_FlipV: 0
      m_SwapUV: 0
      m_Fill: 1
      m_Scale: {x: 1, y: 1}
      m_Offset: {x: 0, y: 0}
      m_Rotation: 0
      m_Anchor: 9
    m_Material: {fileID: 0}
    m_SubmeshIndex: 0
    m_ManualUV: 0
    elementGroup: -1
    m_TextureGroup: -1
  - m_Indexes: 340000003500000036000000350000003700000036000000
    m_SmoothingGroup: 0
    m_Uv:
      m_UseWorldSpace: 0
      m_FlipU: 0
      m_FlipV: 0
      m_SwapUV: 0
      m_Fill: 1
      m_Scale: {x: 1, y: 1}
      m_Offset: {x: 0, y: 0}
      m_Rotation: 0
      m_Anchor: 9
    m_Material: {fileID: 0}
    m_SubmeshIndex: 0
    m_ManualUV: 0
    elementGroup: -1
    m_TextureGroup: -1
  - m_Indexes: 38000000390000003a000000390000003b0000003a000000
    m_SmoothingGroup: 0
    m_Uv:
      m_UseWorldSpace: 0
      m_FlipU: 0
      m_FlipV: 0
      m_SwapUV: 0
      m_Fill: 1
      m_Scale: {x: 1, y: 1}
      m_Offset: {x: 0, y: 0}
      m_Rotation: 0
      m_Anchor: 9
    m_Material: {fileID: 0}
    m_SubmeshIndex: 0
    m_ManualUV: 0
    elementGroup: -1
    m_TextureGroup: -1
  - m_Indexes: 3c0000003d0000003e0000003d0000003f0000003e000000
    m_SmoothingGroup: 0
    m_Uv:
      m_UseWorldSpace: 0
      m_FlipU: 0
      m_FlipV: 0
      m_SwapUV: 0
      m_Fill: 1
      m_Scale: {x: 1, y: 1}
      m_Offset: {x: 0, y: 0}
      m_Rotation: 0
      m_Anchor: 9
    m_Material: {fileID: 0}
    m_SubmeshIndex: 0
    m_ManualUV: 0
    elementGroup: -1
    m_TextureGroup: -1
  - m_Indexes: 400000004100000042000000410000004300000042000000
    m_SmoothingGroup: 0
    m_Uv:
      m_UseWorldSpace: 0
      m_FlipU: 0
      m_FlipV: 0
      m_SwapUV: 0
      m_Fill: 1
      m_Scale: {x: 1, y: 1}
      m_Offset: {x: 0, y: 0}
      m_Rotation: 0
      m_Anchor: 9
    m_Material: {fileID: 0}
    m_SubmeshIndex: 0
    m_ManualUV: 0
    elementGroup: -1
    m_TextureGroup: -1
  - m_Indexes: 440000004500000046000000450000004700000046000000
    m_SmoothingGroup: 0
    m_Uv:
      m_UseWorldSpace: 0
      m_FlipU: 0
      m_FlipV: 0
      m_SwapUV: 0
      m_Fill: 1
      m_Scale: {x: 1, y: 1}
      m_Offset: {x: 0, y: 0}
      m_Rotation: 0
      m_Anchor: 9
    m_Material: {fileID: 0}
    m_SubmeshIndex: 0
    m_ManualUV: 0
    elementGroup: -1
    m_TextureGroup: -1
  - m_Indexes: 48000000490000004a000000490000004b0000004a000000
    m_SmoothingGroup: 0
    m_Uv:
      m_UseWorldSpace: 0
      m_FlipU: 0
      m_FlipV: 0
      m_SwapUV: 0
      m_Fill: 1
      m_Scale: {x: 1, y: 1}
      m_Offset: {x: 0, y: 0}
      m_Rotation: 0
      m_Anchor: 9
    m_Material: {fileID: 0}
    m_SubmeshIndex: 0
    m_ManualUV: 0
    elementGroup: -1
    m_TextureGroup: -1
  - m_Indexes: 4c0000004d0000004e0000004d0000004f0000004e000000
    m_SmoothingGroup: 0
    m_Uv:
      m_UseWorldSpace: 0
      m_FlipU: 0
      m_FlipV: 0
      m_SwapUV: 0
      m_Fill: 1
      m_Scale: {x: 1, y: 1}
      m_Offset: {x: 0, y: 0}
      m_Rotation: 0
      m_Anchor: 9
    m_Material: {fileID: 0}
    m_SubmeshIndex: 0
    m_ManualUV: 0
    elementGroup: -1
    m_TextureGroup: -1
  - m_Indexes: 500000005100000052000000510000005300000052000000
    m_SmoothingGroup: 0
    m_Uv:
      m_UseWorldSpace: 0
      m_FlipU: 0
      m_FlipV: 0
      m_SwapUV: 0
      m_Fill: 1
      m_Scale: {x: 1, y: 1}
      m_Offset: {x: 0, y: 0}
      m_Rotation: 0
      m_Anchor: 9
    m_Material: {fileID: 0}
    m_SubmeshIndex: 0
    m_ManualUV: 0
    elementGroup: -1
    m_TextureGroup: -1
  - m_Indexes: 540000005500000056000000550000005700000056000000
    m_SmoothingGroup: 0
    m_Uv:
      m_UseWorldSpace: 0
      m_FlipU: 0
      m_FlipV: 0
      m_SwapUV: 0
      m_Fill: 1
      m_Scale: {x: 1, y: 1}
      m_Offset: {x: 0, y: 0}
      m_Rotation: 0
      m_Anchor: 9
    m_Material: {fileID: 0}
    m_SubmeshIndex: 0
    m_ManualUV: 0
    elementGroup: -1
    m_TextureGroup: -1
  - m_Indexes: 58000000590000005a000000590000005b0000005a000000
    m_SmoothingGroup: 0
    m_Uv:
      m_UseWorldSpace: 0
      m_FlipU: 0
      m_FlipV: 0
      m_SwapUV: 0
      m_Fill: 1
      m_Scale: {x: 1, y: 1}
      m_Offset: {x: 0, y: 0}
      m_Rotation: 0
      m_Anchor: 9
    m_Material: {fileID: 0}
    m_SubmeshIndex: 0
    m_ManualUV: 0
    elementGroup: -1
    m_TextureGroup: -1
  - m_Indexes: 5c0000005d0000005e0000005d0000005f0000005e000000
    m_SmoothingGroup: 0
    m_Uv:
      m_UseWorldSpace: 0
      m_FlipU: 0
      m_FlipV: 0
      m_SwapUV: 0
      m_Fill: 1
      m_Scale: {x: 1, y: 1}
      m_Offset: {x: 0, y: 0}
      m_Rotation: 0
      m_Anchor: 9
    m_Material: {fileID: 0}
    m_SubmeshIndex: 0
    m_ManualUV: 0
    elementGroup: -1
    m_TextureGroup: -1
  - m_Indexes: 600000006100000062000000610000006300000062000000
    m_SmoothingGroup: 0
    m_Uv:
      m_UseWorldSpace: 0
      m_FlipU: 0
      m_FlipV: 0
      m_SwapUV: 0
      m_Fill: 1
      m_Scale: {x: 1, y: 1}
      m_Offset: {x: 0, y: 0}
      m_Rotation: 0
      m_Anchor: 9
    m_Material: {fileID: 0}
    m_SubmeshIndex: 0
    m_ManualUV: 0
    elementGroup: -1
    m_TextureGroup: -1
  - m_Indexes: 640000006500000066000000650000006700000066000000
    m_SmoothingGroup: 0
    m_Uv:
      m_UseWorldSpace: 0
      m_FlipU: 0
      m_FlipV: 0
      m_SwapUV: 0
      m_Fill: 1
      m_Scale: {x: 1, y: 1}
      m_Offset: {x: 0, y: 0}
      m_Rotation: 0
      m_Anchor: 9
    m_Material: {fileID: 0}
    m_SubmeshIndex: 0
    m_ManualUV: 0
    elementGroup: -1
    m_TextureGroup: -1
  - m_Indexes: 68000000690000006a000000690000006b0000006a000000
    m_SmoothingGroup: 0
    m_Uv:
      m_UseWorldSpace: 0
      m_FlipU: 0
      m_FlipV: 0
      m_SwapUV: 0
      m_Fill: 1
      m_Scale: {x: 1, y: 1}
      m_Offset: {x: 0, y: 0}
      m_Rotation: 0
      m_Anchor: 9
    m_Material: {fileID: 0}
    m_SubmeshIndex: 0
    m_ManualUV: 0
    elementGroup: -1
    m_TextureGroup: -1
  - m_Indexes: 6c0000006d0000006e0000006d0000006f0000006e000000
    m_SmoothingGroup: 0
    m_Uv:
      m_UseWorldSpace: 0
      m_FlipU: 0
      m_FlipV: 0
      m_SwapUV: 0
      m_Fill: 1
      m_Scale: {x: 1, y: 1}
      m_Offset: {x: 0, y: 0}
      m_Rotation: 0
      m_Anchor: 9
    m_Material: {fileID: 0}
    m_SubmeshIndex: 0
    m_ManualUV: 0
    elementGroup: -1
    m_TextureGroup: -1
  - m_Indexes: 700000007100000072000000710000007300000072000000
    m_SmoothingGroup: 0
    m_Uv:
      m_UseWorldSpace: 0
      m_FlipU: 0
      m_FlipV: 0
      m_SwapUV: 0
      m_Fill: 1
      m_Scale: {x: 1, y: 1}
      m_Offset: {x: 0, y: 0}
      m_Rotation: 0
      m_Anchor: 9
    m_Material: {fileID: 0}
    m_SubmeshIndex: 0
    m_ManualUV: 0
    elementGroup: -1
    m_TextureGroup: -1
  - m_Indexes: 740000007500000076000000750000007700000076000000
    m_SmoothingGroup: 0
    m_Uv:
      m_UseWorldSpace: 0
      m_FlipU: 0
      m_FlipV: 0
      m_SwapUV: 0
      m_Fill: 1
      m_Scale: {x: 1, y: 1}
      m_Offset: {x: 0, y: 0}
      m_Rotation: 0
      m_Anchor: 9
    m_Material: {fileID: 0}
    m_SubmeshIndex: 0
    m_ManualUV: 0
    elementGroup: -1
    m_TextureGroup: -1
  - m_Indexes: 78000000790000007a000000790000007b0000007a000000
    m_SmoothingGroup: 0
    m_Uv:
      m_UseWorldSpace: 0
      m_FlipU: 0
      m_FlipV: 0
      m_SwapUV: 0
      m_Fill: 1
      m_Scale: {x: 1, y: 1}
      m_Offset: {x: 0, y: 0}
      m_Rotation: 0
      m_Anchor: 9
    m_Material: {fileID: 0}
    m_SubmeshIndex: 0
    m_ManualUV: 0
    elementGroup: -1
    m_TextureGroup: -1
  - m_Indexes: 7c0000007d0000007e0000007d0000007f0000007e000000
    m_SmoothingGroup: 0
    m_Uv:
      m_UseWorldSpace: 0
      m_FlipU: 0
      m_FlipV: 0
      m_SwapUV: 0
      m_Fill: 1
      m_Scale: {x: 1, y: 1}
      m_Offset: {x: 0, y: 0}
      m_Rotation: 0
      m_Anchor: 9
    m_Material: {fileID: 0}
    m_SubmeshIndex: 0
    m_ManualUV: 0
    elementGroup: -1
    m_TextureGroup: -1
  - m_Indexes: 800000008100000082000000810000008300000082000000
    m_SmoothingGroup: 0
    m_Uv:
      m_UseWorldSpace: 0
      m_FlipU: 0
      m_FlipV: 0
      m_SwapUV: 0
      m_Fill: 1
      m_Scale: {x: 1, y: 1}
      m_Offset: {x: 0, y: 0}
      m_Rotation: 0
      m_Anchor: 9
    m_Material: {fileID: 0}
    m_SubmeshIndex: 0
    m_ManualUV: 0
    elementGroup: -1
    m_TextureGroup: -1
  - m_Indexes: 840000008500000086000000850000008700000086000000
    m_SmoothingGroup: 0
    m_Uv:
      m_UseWorldSpace: 0
      m_FlipU: 0
      m_FlipV: 0
      m_SwapUV: 0
      m_Fill: 1
      m_Scale: {x: 1, y: 1}
      m_Offset: {x: 0, y: 0}
      m_Rotation: 0
      m_Anchor: 9
    m_Material: {fileID: 0}
    m_SubmeshIndex: 0
    m_ManualUV: 0
    elementGroup: -1
    m_TextureGroup: -1
  - m_Indexes: 88000000890000008a000000890000008b0000008a000000
    m_SmoothingGroup: 0
    m_Uv:
      m_UseWorldSpace: 0
      m_FlipU: 0
      m_FlipV: 0
      m_SwapUV: 0
      m_Fill: 1
      m_Scale: {x: 1, y: 1}
      m_Offset: {x: 0, y: 0}
      m_Rotation: 0
      m_Anchor: 9
    m_Material: {fileID: 0}
    m_SubmeshIndex: 0
    m_ManualUV: 0
    elementGroup: -1
    m_TextureGroup: -1
  - m_Indexes: 8c0000008d0000008e0000008d0000008f0000008e000000
    m_SmoothingGroup: 0
    m_Uv:
      m_UseWorldSpace: 0
      m_FlipU: 0
      m_FlipV: 0
      m_SwapUV: 0
      m_Fill: 1
      m_Scale: {x: 1, y: 1}
      m_Offset: {x: 0, y: 0}
      m_Rotation: 0
      m_Anchor: 9
    m_Material: {fileID: 0}
    m_SubmeshIndex: 0
    m_ManualUV: 0
    elementGroup: -1
    m_TextureGroup: -1
  - m_Indexes: 900000009100000092000000910000009300000092000000
    m_SmoothingGroup: 0
    m_Uv:
      m_UseWorldSpace: 0
      m_FlipU: 0
      m_FlipV: 0
      m_SwapUV: 0
      m_Fill: 1
      m_Scale: {x: 1, y: 1}
      m_Offset: {x: 0, y: 0}
      m_Rotation: 0
      m_Anchor: 9
    m_Material: {fileID: 0}
    m_SubmeshIndex: 0
    m_ManualUV: 0
    elementGroup: -1
    m_TextureGroup: -1
  - m_Indexes: 940000009500000096000000950000009700000096000000
    m_SmoothingGroup: 0
    m_Uv:
      m_UseWorldSpace: 0
      m_FlipU: 0
      m_FlipV: 0
      m_SwapUV: 0
      m_Fill: 1
      m_Scale: {x: 1, y: 1}
      m_Offset: {x: 0, y: 0}
      m_Rotation: 0
      m_Anchor: 9
    m_Material: {fileID: 0}
    m_SubmeshIndex: 0
    m_ManualUV: 0
    elementGroup: -1
    m_TextureGroup: -1
  - m_Indexes: 98000000990000009a000000990000009b0000009a000000
    m_SmoothingGroup: 0
    m_Uv:
      m_UseWorldSpace: 0
      m_FlipU: 0
      m_FlipV: 0
      m_SwapUV: 0
      m_Fill: 1
      m_Scale: {x: 1, y: 1}
      m_Offset: {x: 0, y: 0}
      m_Rotation: 0
      m_Anchor: 9
    m_Material: {fileID: 0}
    m_SubmeshIndex: 0
    m_ManualUV: 0
    elementGroup: -1
    m_TextureGroup: -1
  - m_Indexes: 9c0000009d0000009e0000009d0000009f0000009e000000
    m_SmoothingGroup: 0
    m_Uv:
      m_UseWorldSpace: 0
      m_FlipU: 0
      m_FlipV: 0
      m_SwapUV: 0
      m_Fill: 1
      m_Scale: {x: 1, y: 1}
      m_Offset: {x: 0, y: 0}
      m_Rotation: 0
      m_Anchor: 9
    m_Material: {fileID: 0}
    m_SubmeshIndex: 0
    m_ManualUV: 0
    elementGroup: -1
    m_TextureGroup: -1
  - m_Indexes: a0000000a1000000a2000000a1000000a3000000a2000000
    m_SmoothingGroup: 0
    m_Uv:
      m_UseWorldSpace: 0
      m_FlipU: 0
      m_FlipV: 0
      m_SwapUV: 0
      m_Fill: 1
      m_Scale: {x: 1, y: 1}
      m_Offset: {x: 0, y: 0}
      m_Rotation: 0
      m_Anchor: 9
    m_Material: {fileID: 0}
    m_SubmeshIndex: 0
    m_ManualUV: 0
    elementGroup: -1
    m_TextureGroup: -1
  - m_Indexes: a4000000a5000000a6000000a5000000a7000000a6000000
    m_SmoothingGroup: 0
    m_Uv:
      m_UseWorldSpace: 0
      m_FlipU: 0
      m_FlipV: 0
      m_SwapUV: 0
      m_Fill: 1
      m_Scale: {x: 1, y: 1}
      m_Offset: {x: 0, y: 0}
      m_Rotation: 0
      m_Anchor: 9
    m_Material: {fileID: 0}
    m_SubmeshIndex: 0
    m_ManualUV: 0
    elementGroup: -1
    m_TextureGroup: -1
  - m_Indexes: a8000000a9000000aa000000a9000000ab000000aa000000
    m_SmoothingGroup: 0
    m_Uv:
      m_UseWorldSpace: 0
      m_FlipU: 0
      m_FlipV: 0
      m_SwapUV: 0
      m_Fill: 1
      m_Scale: {x: 1, y: 1}
      m_Offset: {x: 0, y: 0}
      m_Rotation: 0
      m_Anchor: 9
    m_Material: {fileID: 0}
    m_SubmeshIndex: 0
    m_ManualUV: 0
    elementGroup: -1
    m_TextureGroup: -1
  - m_Indexes: ac000000ad000000ae000000ad000000af000000ae000000
    m_SmoothingGroup: 0
    m_Uv:
      m_UseWorldSpace: 0
      m_FlipU: 0
      m_FlipV: 0
      m_SwapUV: 0
      m_Fill: 1
      m_Scale: {x: 1, y: 1}
      m_Offset: {x: 0, y: 0}
      m_Rotation: 0
      m_Anchor: 9
    m_Material: {fileID: 0}
    m_SubmeshIndex: 0
    m_ManualUV: 0
    elementGroup: -1
    m_TextureGroup: -1
  - m_Indexes: b0000000b1000000b2000000b1000000b3000000b2000000
    m_SmoothingGroup: 0
    m_Uv:
      m_UseWorldSpace: 0
      m_FlipU: 0
      m_FlipV: 0
      m_SwapUV: 0
      m_Fill: 1
      m_Scale: {x: 1, y: 1}
      m_Offset: {x: 0, y: 0}
      m_Rotation: 0
      m_Anchor: 9
    m_Material: {fileID: 0}
    m_SubmeshIndex: 0
    m_ManualUV: 0
    elementGroup: -1
    m_TextureGroup: -1
  - m_Indexes: b4000000b5000000b6000000b5000000b7000000b6000000
    m_SmoothingGroup: 0
    m_Uv:
      m_UseWorldSpace: 0
      m_FlipU: 0
      m_FlipV: 0
      m_SwapUV: 0
      m_Fill: 1
      m_Scale: {x: 1, y: 1}
      m_Offset: {x: 0, y: 0}
      m_Rotation: 0
      m_Anchor: 9
    m_Material: {fileID: 0}
    m_SubmeshIndex: 0
    m_ManualUV: 0
    elementGroup: -1
    m_TextureGroup: -1
  - m_Indexes: b8000000b9000000ba000000b9000000bb000000ba000000
    m_SmoothingGroup: 0
    m_Uv:
      m_UseWorldSpace: 0
      m_FlipU: 0
      m_FlipV: 0
      m_SwapUV: 0
      m_Fill: 1
      m_Scale: {x: 1, y: 1}
      m_Offset: {x: 0, y: 0}
      m_Rotation: 0
      m_Anchor: 9
    m_Material: {fileID: 0}
    m_SubmeshIndex: 0
    m_ManualUV: 0
    elementGroup: -1
    m_TextureGroup: -1
  - m_Indexes: bc000000bd000000be000000bd000000bf000000be000000
    m_SmoothingGroup: 0
    m_Uv:
      m_UseWorldSpace: 0
      m_FlipU: 0
      m_FlipV: 0
      m_SwapUV: 0
      m_Fill: 1
      m_Scale: {x: 1, y: 1}
      m_Offset: {x: 0, y: 0}
      m_Rotation: 0
      m_Anchor: 9
    m_Material: {fileID: 0}
    m_SubmeshIndex: 0
    m_ManualUV: 0
    elementGroup: -1
    m_TextureGroup: -1
  - m_Indexes: c0000000c1000000c2000000c1000000c3000000c2000000
    m_SmoothingGroup: 0
    m_Uv:
      m_UseWorldSpace: 0
      m_FlipU: 0
      m_FlipV: 0
      m_SwapUV: 0
      m_Fill: 1
      m_Scale: {x: 1, y: 1}
      m_Offset: {x: 0, y: 0}
      m_Rotation: 0
      m_Anchor: 9
    m_Material: {fileID: 0}
    m_SubmeshIndex: 0
    m_ManualUV: 0
    elementGroup: -1
    m_TextureGroup: -1
  - m_Indexes: c4000000c5000000c6000000c5000000c7000000c6000000
    m_SmoothingGroup: 0
    m_Uv:
      m_UseWorldSpace: 0
      m_FlipU: 0
      m_FlipV: 0
      m_SwapUV: 0
      m_Fill: 1
      m_Scale: {x: 1, y: 1}
      m_Offset: {x: 0, y: 0}
      m_Rotation: 0
      m_Anchor: 9
    m_Material: {fileID: 0}
    m_SubmeshIndex: 0
    m_ManualUV: 0
    elementGroup: -1
    m_TextureGroup: -1
  - m_Indexes: c8000000c9000000ca000000c9000000cb000000ca000000
    m_SmoothingGroup: 0
    m_Uv:
      m_UseWorldSpace: 0
      m_FlipU: 0
      m_FlipV: 0
      m_SwapUV: 0
      m_Fill: 1
      m_Scale: {x: 1, y: 1}
      m_Offset: {x: 0, y: 0}
      m_Rotation: 0
      m_Anchor: 9
    m_Material: {fileID: 0}
    m_SubmeshIndex: 0
    m_ManualUV: 0
    elementGroup: -1
    m_TextureGroup: -1
  - m_Indexes: cc000000cd000000ce000000cd000000cf000000ce000000
    m_SmoothingGroup: 0
    m_Uv:
      m_UseWorldSpace: 0
      m_FlipU: 0
      m_FlipV: 0
      m_SwapUV: 0
      m_Fill: 1
      m_Scale: {x: 1, y: 1}
      m_Offset: {x: 0, y: 0}
      m_Rotation: 0
      m_Anchor: 9
    m_Material: {fileID: 0}
    m_SubmeshIndex: 0
    m_ManualUV: 0
    elementGroup: -1
    m_TextureGroup: -1
  m_SharedVertices:
  - m_Vertices: 00000000610000006d000000cc000000
  - m_Vertices: 01000000080000006c00000075000000
  - m_Vertices: 020000006300000068000000c9000000
  - m_Vertices: 030000000a0000006900000070000000
  - m_Vertices: 040000000d0000006e00000077000000
  - m_Vertices: 05000000640000006f000000ce000000
  - m_Vertices: 060000000f0000006b00000072000000
  - m_Vertices: 07000000660000006a000000cb000000
  - m_Vertices: 0900000010000000740000007d000000
  - m_Vertices: 0b000000120000007100000078000000
  - m_Vertices: 0c00000015000000760000007f000000
  - m_Vertices: 0e00000017000000730000007a000000
  - m_Vertices: 11000000180000007c00000085000000
  - m_Vertices: 130000001a0000007900000080000000
  - m_Vertices: 140000001d0000007e00000087000000
  - m_Vertices: 160000001f0000007b00000082000000
  - m_Vertices: 1900000020000000840000008d000000
  - m_Vertices: 1b000000220000008100000088000000
  - m_Vertices: 1c00000025000000860000008f000000
  - m_Vertices: 1e00000027000000830000008a000000
  - m_Vertices: 21000000280000008c00000095000000
  - m_Vertices: 230000002a0000008900000090000000
  - m_Vertices: 240000002d0000008e00000097000000
  - m_Vertices: 260000002f0000008b00000092000000
  - m_Vertices: 2900000030000000940000009d000000
  - m_Vertices: 2b000000320000009100000098000000
  - m_Vertices: 2c00000035000000960000009f000000
  - m_Vertices: 2e00000037000000930000009a000000
  - m_Vertices: 31000000380000009c000000a5000000
  - m_Vertices: 330000003a00000099000000a0000000
  - m_Vertices: 340000003d0000009e000000a7000000
  - m_Vertices: 360000003f0000009b000000a2000000
  - m_Vertices: 3900000040000000a4000000ad000000
  - m_Vertices: 3b00000042000000a1000000a8000000
  - m_Vertices: 3c00000045000000a6000000af000000
  - m_Vertices: 3e00000047000000a3000000aa000000
  - m_Vertices: 4100000048000000ac000000b5000000
  - m_Vertices: 430000004a000000a9000000b0000000
  - m_Vertices: 440000004d000000ae000000b7000000
  - m_Vertices: 460000004f000000ab000000b2000000
  - m_Vertices: 4900000050000000b4000000bd000000
  - m_Vertices: 4b00000052000000b1000000b8000000
  - m_Vertices: 4c00000055000000b6000000bf000000
  - m_Vertices: 4e00000057000000b3000000ba000000
  - m_Vertices: 5100000058000000bc000000c5000000
  - m_Vertices: 530000005a000000b9000000c0000000
  - m_Vertices: 540000005d000000be000000c7000000
  - m_Vertices: 560000005f000000bb000000c2000000
  - m_Vertices: 5900000060000000c4000000cd000000
  - m_Vertices: 5b00000062000000c1000000c8000000
  - m_Vertices: 5c00000065000000c6000000cf000000
  - m_Vertices: 5e00000067000000c3000000ca000000
  m_SharedTextures: []
  m_Positions:
  - {x: 0, y: 0, z: 0}
  - {x: -0.27834177, y: 1.1292773, z: 0}
  - {x: 0, y: 0, z: 9.84}
  - {x: -0.27834177, y: 1.1292773, z: 9.84}
  - {x: -0.4288695, y: 1.0502744, z: 0}
  - {x: -0.17000008, y: 0, z: 0}
  - {x: -0.4288695, y: 1.0502744, z: 9.84}
  - {x: -0.17000008, y: 0, z: 9.84}
  - {x: -0.27834177, y: 1.1292773, z: 0}
  - {x: -1.0496029, y: 1.9998509, z: 0}
  - {x: -0.27834177, y: 1.1292773, z: 9.84}
  - {x: -1.0496029, y: 1.9998509, z: 9.84}
  - {x: -1.1461738, y: 1.8599435, z: 0}
  - {x: -0.4288695, y: 1.0502744, z: 0}
  - {x: -1.1461738, y: 1.8599435, z: 9.84}
  - {x: -0.4288695, y: 1.0502744, z: 9.84}
  - {x: -1.0496029, y: 1.9998509, z: 0}
  - {x: -2.1370957, y: 2.4122827, z: 0}
  - {x: -1.0496029, y: 1.9998509, z: 9.84}
  - {x: -2.1370957, y: 2.4122827, z: 9.84}
  - {x: -2.1575868, y: 2.243522, z: 0}
  - {x: -1.1461738, y: 1.8599435, z: 0}
  - {x: -2.1575868, y: 2.243522, z: 9.84}
  - {x: -1.1461738, y: 1.8599435, z: 9.84}
  - {x: -2.1370957, y: 2.4122827, z: 0}
  - {x: -3.29169, y: 2.2720895, z: 0}
  - {x: -2.1370957, y: 2.4122827, z: 9.84}
  - {x: -3.29169, y: 2.2720895, z: 9.84}
  - {x: -3.2314072, y: 2.1131365, z: 0}
  - {x: -2.1575868, y: 2.243522, z: 0}
  - {x: -3.2314072, y: 2.1131365, z: 9.84}
  - {x: -2.1575868, y: 2.243522, z: 9.84}
  - {x: -3.29169, y: 2.2720895, z: 0}
  - {x: -4.248881, y: 1.6113886, z: 0}
  - {x: -3.29169, y: 2.2720895, z: 9.84}
  - {x: -4.248881, y: 1.6113886, z: 9.84}
  - {x: -4.121634, y: 1.4986576, z: 0}
  - {x: -3.2314072, y: 2.1131365, z: 0}
  - {x: -4.121634, y: 1.4986576, z: 9.84}
  - {x: -3.2314072, y: 2.1131365, z: 9.84}
  - {x: -4.248881, y: 1.6113886, z: 0}
  - {x: -4.7893887, y: 0.58153766, z: 0}
  - {x: -4.248881, y: 1.6113886, z: 9.84}
  - {x: -4.7893887, y: 0.58153766, z: 9.84}
  - {x: -4.6243286, y: 0.540854, z: 0}
  - {x: -4.121634, y: 1.4986576, z: 0}
  - {x: -4.6243286, y: 0.540854, z: 9.84}
  - {x: -4.121634, y: 1.4986576, z: 9.84}
  - {x: -4.7893887, y: 0.58153766, z: 0}
  - {x: -4.7893887, y: -0.5815375, z: 0}
  - {x: -4.7893887, y: 0.58153766, z: 9.84}
  - {x: -4.7893887, y: -0.5815375, z: 9.84}
  - {x: -4.6243286, y: -0.5408538, z: 0}
  - {x: -4.6243286, y: 0.540854, z: 0}
  - {x: -4.6243286, y: -0.5408538, z: 9.84}
  - {x: -4.6243286, y: 0.540854, z: 9.84}
  - {x: -4.7893887, y: -0.5815375, z: 0}
  - {x: -4.248881, y: -1.6113883, z: 0}
  - {x: -4.7893887, y: -0.5815375, z: 9.84}
  - {x: -4.248881, y: -1.6113883, z: 9.84}
  - {x: -4.121634, y: -1.4986575, z: 0}
  - {x: -4.6243286, y: -0.5408538, z: 0}
  - {x: -4.121634, y: -1.4986575, z: 9.84}
  - {x: -4.6243286, y: -0.5408538, z: 9.84}
  - {x: -4.248881, y: -1.6113883, z: 0}
  - {x: -3.2916903, y: -2.2720895, z: 0}
  - {x: -4.248881, y: -1.6113883, z: 9.84}
  - {x: -3.2916903, y: -2.2720895, z: 9.84}
  - {x: -3.2314074, y: -2.1131365, z: 0}
  - {x: -4.121634, y: -1.4986575, z: 0}
  - {x: -3.2314074, y: -2.1131365, z: 9.84}
  - {x: -4.121634, y: -1.4986575, z: 9.84}
  - {x: -3.2916903, y: -2.2720895, z: 0}
  - {x: -2.137097, y: -2.4122827, z: 0}
  - {x: -3.2916903, y: -2.2720895, z: 9.84}
  - {x: -2.137097, y: -2.4122827, z: 9.84}
  - {x: -2.157588, y: -2.2435222, z: 0}
  - {x: -3.2314074, y: -2.1131365, z: 0}
  - {x: -2.157588, y: -2.2435222, z: 9.84}
  - {x: -3.2314074, y: -2.1131365, z: 9.84}
  - {x: -2.137097, y: -2.4122827, z: 0}
  - {x: -1.0496031, y: -1.9998511, z: 0}
  - {x: -2.137097, y: -2.4122827, z: 9.84}
  - {x: -1.0496031, y: -1.9998511, z: 9.84}
  - {x: -1.1461742, y: -1.8599437, z: 0}
  - {x: -2.157588, y: -2.2435222, z: 0}
  - {x: -1.1461742, y: -1.8599437, z: 9.84}
  - {x: -2.157588, y: -2.2435222, z: 9.84}
  - {x: -1.0496031, y: -1.9998511, z: 0}
  - {x: -0.2783425, y: -1.1292784, z: 0}
  - {x: -1.0496031, y: -1.9998511, z: 9.84}
  - {x: -0.2783425, y: -1.1292784, z: 9.84}
  - {x: -0.42886996, y: -1.0502753, z: 0}
  - {x: -1.1461742, y: -1.8599437, z: 0}
  - {x: -0.42886996, y: -1.0502753, z: 9.84}
  - {x: -1.1461742, y: -1.8599437, z: 9.84}
  - {x: -0.2783425, y: -1.1292784, z: 0}
  - {x: 0, y: 0.0000004248747, z: 0}
  - {x: -0.2783425, y: -1.1292784, z: 9.84}
  - {x: 0, y: 0.0000004248747, z: 9.84}
  - {x: -0.17000008, y: 0.00000039515095, z: 0}
  - {x: -0.42886996, y: -1.0502753, z: 0}
  - {x: -0.17000008, y: 0.00000039515095, z: 9.84}
  - {x: -0.42886996, y: -1.0502753, z: 9.84}
  - {x: 0, y: 0, z: 9.84}
  - {x: -0.27834177, y: 1.1292773, z: 9.84}
  - {x: -0.17000008, y: 0, z: 9.84}
  - {x: -0.4288695, y: 1.0502744, z: 9.84}
  - {x: -0.27834177, y: 1.1292773, z: 0}
  - {x: 0, y: 0, z: 0}
  - {x: -0.4288695, y: 1.0502744, z: 0}
  - {x: -0.17000008, y: 0, z: 0}
  - {x: -0.27834177, y: 1.1292773, z: 9.84}
  - {x: -1.0496029, y: 1.9998509, z: 9.84}
  - {x: -0.4288695, y: 1.0502744, z: 9.84}
  - {x: -1.1461738, y: 1.8599435, z: 9.84}
  - {x: -1.0496029, y: 1.9998509, z: 0}
  - {x: -0.27834177, y: 1.1292773, z: 0}
  - {x: -1.1461738, y: 1.8599435, z: 0}
  - {x: -0.4288695, y: 1.0502744, z: 0}
  - {x: -1.0496029, y: 1.9998509, z: 9.84}
  - {x: -2.1370957, y: 2.4122827, z: 9.84}
  - {x: -1.1461738, y: 1.8599435, z: 9.84}
  - {x: -2.1575868, y: 2.243522, z: 9.84}
  - {x: -2.1370957, y: 2.4122827, z: 0}
  - {x: -1.0496029, y: 1.9998509, z: 0}
  - {x: -2.1575868, y: 2.243522, z: 0}
  - {x: -1.1461738, y: 1.8599435, z: 0}
  - {x: -2.1370957, y: 2.4122827, z: 9.84}
  - {x: -3.29169, y: 2.2720895, z: 9.84}
  - {x: -2.1575868, y: 2.243522, z: 9.84}
  - {x: -3.2314072, y: 2.1131365, z: 9.84}
  - {x: -3.29169, y: 2.2720895, z: 0}
  - {x: -2.1370957, y: 2.4122827, z: 0}
  - {x: -3.2314072, y: 2.1131365, z: 0}
  - {x: -2.1575868, y: 2.243522, z: 0}
  - {x: -3.29169, y: 2.2720895, z: 9.84}
  - {x: -4.248881, y: 1.6113886, z: 9.84}
  - {x: -3.2314072, y: 2.1131365, z: 9.84}
  - {x: -4.121634, y: 1.4986576, z: 9.84}
  - {x: -4.248881, y: 1.6113886, z: 0}
  - {x: -3.29169, y: 2.2720895, z: 0}
  - {x: -4.121634, y: 1.4986576, z: 0}
  - {x: -3.2314072, y: 2.1131365, z: 0}
  - {x: -4.248881, y: 1.6113886, z: 9.84}
  - {x: -4.7893887, y: 0.58153766, z: 9.84}
  - {x: -4.121634, y: 1.4986576, z: 9.84}
  - {x: -4.6243286, y: 0.540854, z: 9.84}
  - {x: -4.7893887, y: 0.58153766, z: 0}
  - {x: -4.248881, y: 1.6113886, z: 0}
  - {x: -4.6243286, y: 0.540854, z: 0}
  - {x: -4.121634, y: 1.4986576, z: 0}
  - {x: -4.7893887, y: 0.58153766, z: 9.84}
  - {x: -4.7893887, y: -0.5815375, z: 9.84}
  - {x: -4.6243286, y: 0.540854, z: 9.84}
  - {x: -4.6243286, y: -0.5408538, z: 9.84}
  - {x: -4.7893887, y: -0.5815375, z: 0}
  - {x: -4.7893887, y: 0.58153766, z: 0}
  - {x: -4.6243286, y: -0.5408538, z: 0}
  - {x: -4.6243286, y: 0.540854, z: 0}
  - {x: -4.7893887, y: -0.5815375, z: 9.84}
  - {x: -4.248881, y: -1.6113883, z: 9.84}
  - {x: -4.6243286, y: -0.5408538, z: 9.84}
  - {x: -4.121634, y: -1.4986575, z: 9.84}
  - {x: -4.248881, y: -1.6113883, z: 0}
  - {x: -4.7893887, y: -0.5815375, z: 0}
  - {x: -4.121634, y: -1.4986575, z: 0}
  - {x: -4.6243286, y: -0.5408538, z: 0}
  - {x: -4.248881, y: -1.6113883, z: 9.84}
  - {x: -3.2916903, y: -2.2720895, z: 9.84}
  - {x: -4.121634, y: -1.4986575, z: 9.84}
  - {x: -3.2314074, y: -2.1131365, z: 9.84}
  - {x: -3.2916903, y: -2.2720895, z: 0}
  - {x: -4.248881, y: -1.6113883, z: 0}
  - {x: -3.2314074, y: -2.1131365, z: 0}
  - {x: -4.121634, y: -1.4986575, z: 0}
  - {x: -3.2916903, y: -2.2720895, z: 9.84}
  - {x: -2.137097, y: -2.4122827, z: 9.84}
  - {x: -3.2314074, y: -2.1131365, z: 9.84}
  - {x: -2.157588, y: -2.2435222, z: 9.84}
  - {x: -2.137097, y: -2.4122827, z: 0}
  - {x: -3.2916903, y: -2.2720895, z: 0}
  - {x: -2.157588, y: -2.2435222, z: 0}
  - {x: -3.2314074, y: -2.1131365, z: 0}
  - {x: -2.137097, y: -2.4122827, z: 9.84}
  - {x: -1.0496031, y: -1.9998511, z: 9.84}
  - {x: -2.157588, y: -2.2435222, z: 9.84}
  - {x: -1.1461742, y: -1.8599437, z: 9.84}
  - {x: -1.0496031, y: -1.9998511, z: 0}
  - {x: -2.137097, y: -2.4122827, z: 0}
  - {x: -1.1461742, y: -1.8599437, z: 0}
  - {x: -2.157588, y: -2.2435222, z: 0}
  - {x: -1.0496031, y: -1.9998511, z: 9.84}
  - {x: -0.2783425, y: -1.1292784, z: 9.84}
  - {x: -1.1461742, y: -1.8599437, z: 9.84}
  - {x: -0.42886996, y: -1.0502753, z: 9.84}
  - {x: -0.2783425, y: -1.1292784, z: 0}
  - {x: -1.0496031, y: -1.9998511, z: 0}
  - {x: -0.42886996, y: -1.0502753, z: 0}
  - {x: -1.1461742, y: -1.8599437, z: 0}
  - {x: -0.2783425, y: -1.1292784, z: 9.84}
  - {x: 0, y: 0.0000004248747, z: 9.84}
  - {x: -0.42886996, y: -1.0502753, z: 9.84}
  - {x: -0.17000008, y: 0.00000039515095, z: 9.84}
  - {x: 0, y: 0.0000004248747, z: 0}
  - {x: -0.2783425, y: -1.1292784, z: 0}
  - {x: -0.17000008, y: 0.00000039515095, z: 0}
  - {x: -0.42886996, y: -1.0502753, z: 0}
  m_Textures0:
  - {x: 0, y: 0}
  - {x: 0, y: 1.1630741}
  - {x: 9.84, y: 0}
  - {x: 9.84, y: 1.1630741}
  - {x: 0, y: 1.1223905}
  - {x: 0, y: 0.040683687}
  - {x: -9.84, y: 1.1223905}
  - {x: -9.84, y: 0.040683687}
  - {x: 0, y: 1.0298508}
  - {x: 0, y: 2.1929252}
  - {x: 9.84, y: 1.0298508}
  - {x: 9.84, y: 2.1929252}
  - {x: 0, y: 2.1522415}
  - {x: 0, y: 1.0705347}
  - {x: -9.84, y: 2.1522415}
  - {x: -9.84, y: 1.0705347}
  - {x: -1.690553, y: 0}
  - {x: -2.8536267, y: 0}
  - {x: -1.690553, y: 9.84}
  - {x: -2.8536267, y: 9.84}
  - {x: 2.8129427, y: 0}
  - {x: 1.7312363, y: 0}
  - {x: 2.8129427, y: 9.84}
  - {x: 1.7312363, y: 9.84}
  - {x: -1.8307451, y: 0}
  - {x: -2.9938197, y: 0}
  - {x: -1.8307451, y: 9.84}
  - {x: -2.9938197, y: 9.84}
  - {x: 2.953136, y: 0}
  - {x: 1.8714288, y: 0}
  - {x: 2.953136, y: 9.84}
  - {x: 1.8714288, y: 9.84}
  - {x: -1.4183145, y: 0}
  - {x: -2.581388, y: 0}
  - {x: -1.4183145, y: 9.84}
  - {x: -2.581388, y: 9.84}
  - {x: 2.5407045, y: 0}
  - {x: 1.4589983, y: 0}
  - {x: 2.5407045, y: 9.84}
  - {x: 1.4589983, y: 9.84}
  - {x: 0, y: -0.54774076}
  - {x: 0, y: -1.710815}
  - {x: -9.84, y: -0.54774076}
  - {x: -9.84, y: -1.710815}
  - {x: 0, y: -1.6701322}
  - {x: 0, y: -0.5884253}
  - {x: 9.84, y: -1.6701322}
  - {x: 9.84, y: -0.5884253}
  - {x: 0, y: 0.58153766}
  - {x: -0, y: -0.5815375}
  - {x: -9.84, y: 0.58153766}
  - {x: -9.84, y: -0.5815375}
  - {x: 0, y: -0.5408538}
  - {x: 0, y: 0.540854}
  - {x: 9.84, y: -0.5408538}
  - {x: 9.84, y: 0.540854}
  - {x: 0, y: 1.7108153}
  - {x: 0, y: 0.54774123}
  - {x: -9.84, y: 1.7108153}
  - {x: -9.84, y: 0.54774123}
  - {x: 0, y: 0.58842516}
  - {x: 0, y: 1.670132}
  - {x: 9.84, y: 0.58842516}
  - {x: 9.84, y: 1.670132}
  - {x: 2.581387, y: 0}
  - {x: 1.4183135, y: 0}
  - {x: 2.581387, y: 9.84}
  - {x: 1.4183135, y: 9.84}
  - {x: -1.4589976, y: 0}
  - {x: -2.5407038, y: 0}
  - {x: -1.4589976, y: 9.84}
  - {x: -2.5407038, y: 9.84}
  - {x: 2.9938197, y: 0}
  - {x: 1.830746, y: 0}
  - {x: 2.9938197, y: 9.84}
  - {x: 1.830746, y: 9.84}
  - {x: -1.8714293, y: 0}
  - {x: -2.9531355, y: 0}
  - {x: -1.8714293, y: 9.84}
  - {x: -2.9531355, y: 9.84}
  - {x: 2.8536272, y: 0}
  - {x: 1.6905526, y: 0}
  - {x: 2.8536272, y: 9.84}
  - {x: 1.6905526, y: 9.84}
  - {x: -1.7312363, y: 0}
  - {x: -2.8129435, y: 0}
  - {x: -1.7312363, y: 9.84}
  - {x: -2.8129435, y: 9.84}
  - {x: 0, y: -2.1929255}
  - {x: 0, y: -1.029852}
  - {x: 9.84, y: -2.1929255}
  - {x: 9.84, y: -1.029852}
  - {x: -0, y: -1.0705355}
  - {x: -0, y: -2.1522417}
  - {x: -9.84, y: -1.0705355}
  - {x: -9.84, y: -2.1522417}
  - {x: 0, y: -1.1630753}
  - {x: 0, y: 0.0000004125286}
  - {x: 9.84, y: -1.1630753}
  - {x: 9.84, y: 0.0000004125286}
  - {x: 0, y: -0.040683325}
  - {x: -0, y: -1.1223916}
  - {x: -9.84, y: -0.040683325}
  - {x: -9.84, y: -1.1223916}
  - {x: 0, y: 0}
  - {x: 0.27834177, y: 1.1292773}
  - {x: 0.17000008, y: 0}
  - {x: 0.4288695, y: 1.0502744}
  - {x: -0.27834177, y: 1.1292773}
  - {x: 0, y: 0}
  - {x: -0.4288695, y: 1.0502744}
  - {x: -0.17000008, y: 0}
  - {x: 0.27834177, y: 1.1292773}
  - {x: 1.0496029, y: 1.9998509}
  - {x: 0.4288695, y: 1.0502744}
  - {x: 1.1461738, y: 1.8599435}
  - {x: -1.0496029, y: 1.9998509}
  - {x: -0.27834177, y: 1.1292773}
  - {x: -1.1461738, y: 1.8599435}
  - {x: -0.4288695, y: 1.0502744}
  - {x: 1.0496029, y: 1.9998509}
  - {x: 2.1370957, y: 2.4122827}
  - {x: 1.1461738, y: 1.8599435}
  - {x: 2.1575868, y: 2.243522}
  - {x: -2.1370957, y: 2.4122827}
  - {x: -1.0496029, y: 1.9998509}
  - {x: -2.1575868, y: 2.243522}
  - {x: -1.1461738, y: 1.8599435}
  - {x: 2.1370957, y: 2.4122827}
  - {x: 3.29169, y: 2.2720895}
  - {x: 2.1575868, y: 2.243522}
  - {x: 3.2314072, y: 2.1131365}
  - {x: -3.29169, y: 2.2720895}
  - {x: -2.1370957, y: 2.4122827}
  - {x: -3.2314072, y: 2.1131365}
  - {x: -2.1575868, y: 2.243522}
  - {x: 3.29169, y: 2.2720895}
  - {x: 4.248881, y: 1.6113886}
  - {x: 3.2314072, y: 2.1131365}
  - {x: 4.121634, y: 1.4986576}
  - {x: -4.248881, y: 1.6113886}
  - {x: -3.29169, y: 2.2720895}
  - {x: -4.121634, y: 1.4986576}
  - {x: -3.2314072, y: 2.1131365}
  - {x: 4.248881, y: 1.6113886}
  - {x: 4.7893887, y: 0.58153766}
  - {x: 4.121634, y: 1.4986576}
  - {x: 4.6243286, y: 0.540854}
  - {x: -4.7893887, y: 0.58153766}
  - {x: -4.248881, y: 1.6113886}
  - {x: -4.6243286, y: 0.540854}
  - {x: -4.121634, y: 1.4986576}
  - {x: 4.7893887, y: 0.58153766}
  - {x: 4.7893887, y: -0.5815375}
  - {x: 4.6243286, y: 0.540854}
  - {x: 4.6243286, y: -0.5408538}
  - {x: -4.7893887, y: -0.5815375}
  - {x: -4.7893887, y: 0.58153766}
  - {x: -4.6243286, y: -0.5408538}
  - {x: -4.6243286, y: 0.540854}
  - {x: 4.7893887, y: -0.5815375}
  - {x: 4.248881, y: -1.6113883}
  - {x: 4.6243286, y: -0.5408538}
  - {x: 4.121634, y: -1.4986575}
  - {x: -4.248881, y: -1.6113883}
  - {x: -4.7893887, y: -0.5815375}
  - {x: -4.121634, y: -1.4986575}
  - {x: -4.6243286, y: -0.5408538}
  - {x: 4.248881, y: -1.6113883}
  - {x: 3.2916903, y: -2.2720895}
  - {x: 4.121634, y: -1.4986575}
  - {x: 3.2314074, y: -2.1131365}
  - {x: -3.2916903, y: -2.2720895}
  - {x: -4.248881, y: -1.6113883}
  - {x: -3.2314074, y: -2.1131365}
  - {x: -4.121634, y: -1.4986575}
  - {x: 3.2916903, y: -2.2720895}
  - {x: 2.137097, y: -2.4122827}
  - {x: 3.2314074, y: -2.1131365}
  - {x: 2.157588, y: -2.2435222}
  - {x: -2.137097, y: -2.4122827}
  - {x: -3.2916903, y: -2.2720895}
  - {x: -2.157588, y: -2.2435222}
  - {x: -3.2314074, y: -2.1131365}
  - {x: 2.137097, y: -2.4122827}
  - {x: 1.0496031, y: -1.9998511}
  - {x: 2.157588, y: -2.2435222}
  - {x: 1.1461742, y: -1.8599437}
  - {x: -1.0496031, y: -1.9998511}
  - {x: -2.137097, y: -2.4122827}
  - {x: -1.1461742, y: -1.8599437}
  - {x: -2.157588, y: -2.2435222}
  - {x: 1.0496031, y: -1.9998511}
  - {x: 0.2783425, y: -1.1292784}
  - {x: 1.1461742, y: -1.8599437}
  - {x: 0.42886996, y: -1.0502753}
  - {x: -0.2783425, y: -1.1292784}
  - {x: -1.0496031, y: -1.9998511}
  - {x: -0.42886996, y: -1.0502753}
  - {x: -1.1461742, y: -1.8599437}
  - {x: 0.2783425, y: -1.1292784}
  - {x: 0, y: 0.0000004248747}
  - {x: 0.42886996, y: -1.0502753}
  - {x: 0.17000008, y: 0.00000039515095}
  - {x: 0, y: 0.0000004248747}
  - {x: -0.2783425, y: -1.1292784}
  - {x: -0.17000008, y: 0.00000039515095}
  - {x: -0.42886996, y: -1.0502753}
  m_Textures2: []
  m_Textures3: []
  m_Tangents:
  - {x: 0, y: 0, z: 1, w: -1}
  - {x: 0, y: 0, z: 1, w: -1}
  - {x: 0, y: 0, z: 1, w: -1}
  - {x: 0, y: 0, z: 1, w: -1}
  - {x: 0, y: 0, z: -1, w: -1}
  - {x: 0, y: 0, z: -1, w: -1}
  - {x: 0, y: 0, z: -1, w: -1}
  - {x: 0, y: 0, z: -1, w: -1}
  - {x: 0, y: 0, z: 1, w: -1}
  - {x: 0, y: 0, z: 1, w: -1}
  - {x: 0, y: 0, z: 1, w: -1}
  - {x: 0, y: 0, z: 1, w: -1}
  - {x: 0, y: 0, z: -1, w: -1}
  - {x: 0, y: 0, z: -1, w: -1}
  - {x: 0, y: 0, z: -1, w: -1}
  - {x: 0, y: 0, z: -1, w: -1}
  - {x: 0.9350162, y: -0.35460505, z: 0, w: -1}
  - {x: 0.9350162, y: -0.35460505, z: 0, w: -1}
  - {x: 0.9350162, y: -0.35460505, z: 0, w: -1}
  - {x: 0.9350162, y: -0.35460505, z: 0, w: -1}
  - {x: -0.9350162, y: 0.35460496, z: 0, w: -1}
  - {x: -0.9350162, y: 0.35460496, z: 0, w: -1}
  - {x: -0.9350162, y: 0.35460496, z: 0, w: -1}
  - {x: -0.9350162, y: 0.35460496, z: 0, w: -1}
  - {x: 0.99270886, y: 0.12053675, z: 0, w: -1}
  - {x: 0.99270886, y: 0.12053675, z: 0, w: -1}
  - {x: 0.99270886, y: 0.12053675, z: 0, w: -1}
  - {x: 0.99270886, y: 0.12053675, z: 0, w: -1}
  - {x: -0.99270886, y: -0.12053668, z: 0, w: -1}
  - {x: -0.99270886, y: -0.12053668, z: 0, w: -1}
  - {x: -0.99270886, y: -0.12053668, z: 0, w: -1}
  - {x: -0.99270886, y: -0.12053668, z: 0, w: -1}
  - {x: 0.822984, y: 0.56806463, z: 0, w: -1}
  - {x: 0.822984, y: 0.56806463, z: 0, w: -1}
  - {x: 0.822984, y: 0.56806463, z: 0, w: -1}
  - {x: 0.822984, y: 0.56806463, z: 0, w: -1}
  - {x: -0.822984, y: -0.5680646, z: 0, w: -1}
  - {x: -0.822984, y: -0.5680646, z: 0, w: -1}
  - {x: -0.822984, y: -0.5680646, z: 0, w: -1}
  - {x: -0.822984, y: -0.5680646, z: 0, w: -1}
  - {x: 0, y: 0, z: -1, w: -1}
  - {x: 0, y: 0, z: -1, w: -1}
  - {x: 0, y: 0, z: -1, w: -1}
  - {x: 0, y: 0, z: -1, w: -1}
  - {x: 0, y: 0, z: 1, w: -1}
  - {x: 0, y: 0, z: 1, w: -1}
  - {x: 0, y: 0, z: 1, w: -1}
  - {x: 0, y: 0, z: 1, w: -1}
  - {x: 0, y: 0, z: -1, w: -1}
  - {x: 0, y: 0, z: -1, w: -1}
  - {x: 0, y: 0, z: -1, w: -1}
  - {x: 0, y: 0, z: -1, w: -1}
  - {x: 0, y: 0, z: 1, w: -1}
  - {x: 0, y: 0, z: 1, w: -1}
  - {x: 0, y: 0, z: 1, w: -1}
  - {x: 0, y: 0, z: 1, w: -1}
  - {x: 0, y: 0, z: -1, w: -1}
  - {x: 0, y: 0, z: -1, w: -1}
  - {x: 0, y: 0, z: -1, w: -1}
  - {x: 0, y: 0, z: -1, w: -1}
  - {x: 0, y: 0, z: 1, w: -1}
  - {x: 0, y: 0, z: 1, w: -1}
  - {x: 0, y: 0, z: 1, w: -1}
  - {x: 0, y: 0, z: 1, w: -1}
  - {x: -0.82298374, y: 0.5680649, z: 0, w: -1}
  - {x: -0.82298374, y: 0.5680649, z: 0, w: -1}
  - {x: -0.82298374, y: 0.5680649, z: 0, w: -1}
  - {x: -0.82298374, y: 0.5680649, z: 0, w: -1}
  - {x: 0.82298386, y: -0.56806475, z: 0, w: -1}
  - {x: 0.82298386, y: -0.56806475, z: 0, w: -1}
  - {x: 0.82298386, y: -0.56806475, z: 0, w: -1}
  - {x: 0.82298386, y: -0.56806475, z: 0, w: -1}
  - {x: -0.99270886, y: 0.12053684, z: 0, w: -1}
  - {x: -0.99270886, y: 0.12053684, z: 0, w: -1}
  - {x: -0.99270886, y: 0.12053684, z: 0, w: -1}
  - {x: -0.99270886, y: 0.12053684, z: 0, w: -1}
  - {x: 0.99270886, y: -0.12053701, z: 0, w: -1}
  - {x: 0.99270886, y: -0.12053701, z: 0, w: -1}
  - {x: 0.99270886, y: -0.12053701, z: 0, w: -1}
  - {x: 0.99270886, y: -0.12053701, z: 0, w: -1}
  - {x: -0.9350164, y: -0.35460463, z: 0, w: -1}
  - {x: -0.9350164, y: -0.35460463, z: 0, w: -1}
  - {x: -0.9350164, y: -0.35460463, z: 0, w: -1}
  - {x: -0.9350164, y: -0.35460463, z: 0, w: -1}
  - {x: 0.93501633, y: 0.3546047, z: 0, w: -1}
  - {x: 0.93501633, y: 0.3546047, z: 0, w: -1}
  - {x: 0.93501633, y: 0.3546047, z: 0, w: -1}
  - {x: 0.93501633, y: 0.3546047, z: 0, w: -1}
  - {x: 0, y: 0, z: 1, w: -1}
  - {x: 0, y: 0, z: 1, w: -1}
  - {x: 0, y: 0, z: 1, w: -1}
  - {x: 0, y: 0, z: 1, w: -1}
  - {x: 0, y: 0, z: -1, w: -1}
  - {x: 0, y: 0, z: -1, w: -1}
  - {x: 0, y: 0, z: -1, w: -1}
  - {x: 0, y: 0, z: -1, w: -1}
  - {x: 0, y: 0, z: 1, w: -1}
  - {x: 0, y: 0, z: 1, w: -1}
  - {x: 0, y: 0, z: 1, w: -1}
  - {x: 0, y: 0, z: 1, w: -1}
  - {x: 0, y: 0, z: -1, w: -1}
  - {x: 0, y: 0, z: -1, w: -1}
  - {x: 0, y: 0, z: -1, w: -1}
  - {x: 0, y: 0, z: -1, w: -1}
  - {x: -1, y: 0, z: 0, w: -1}
  - {x: -1, y: 0, z: 0, w: -1}
  - {x: -1, y: 0, z: 0, w: -1}
  - {x: -1, y: 0, z: 0, w: -1}
  - {x: 1, y: 0, z: 0, w: -1}
  - {x: 1, y: 0, z: 0, w: -1}
  - {x: 1, y: 0, z: 0, w: -1}
  - {x: 1, y: 0, z: 0, w: -1}
  - {x: -1, y: 0, z: 0, w: -1}
  - {x: -1, y: 0, z: 0, w: -1}
  - {x: -1, y: 0, z: 0, w: -1}
  - {x: -1, y: 0, z: 0, w: -1}
  - {x: 1, y: 0, z: 0, w: -1}
  - {x: 1, y: 0, z: 0, w: -1}
  - {x: 1, y: 0, z: 0, w: -1}
  - {x: 1, y: 0, z: 0, w: -1}
  - {x: -1, y: 0, z: 0, w: -1}
  - {x: -1, y: 0, z: 0, w: -1}
  - {x: -1, y: 0, z: 0, w: -1}
  - {x: -1, y: 0, z: 0, w: -1}
  - {x: 1, y: 0, z: 0, w: -1}
  - {x: 1, y: 0, z: 0, w: -1}
  - {x: 1, y: 0, z: 0, w: -1}
  - {x: 1, y: 0, z: 0, w: -1}
  - {x: -1, y: 0, z: 0, w: -1}
  - {x: -1, y: 0, z: 0, w: -1}
  - {x: -1, y: 0, z: 0, w: -1}
  - {x: -1, y: 0, z: 0, w: -1}
  - {x: 1, y: 0, z: 0, w: -1}
  - {x: 1, y: 0, z: 0, w: -1}
  - {x: 1, y: 0, z: 0, w: -1}
  - {x: 1, y: 0, z: 0, w: -1}
  - {x: -1, y: 0, z: 0, w: -1}
  - {x: -1, y: 0, z: 0, w: -1}
  - {x: -1, y: 0, z: 0, w: -1}
  - {x: -1, y: 0, z: 0, w: -1}
  - {x: 1, y: 0, z: 0, w: -1}
  - {x: 1, y: 0, z: 0, w: -1}
  - {x: 1, y: 0, z: 0, w: -1}
  - {x: 1, y: 0, z: 0, w: -1}
  - {x: -1, y: 0, z: 0, w: -1}
  - {x: -1, y: 0, z: 0, w: -1}
  - {x: -1, y: 0, z: 0, w: -1}
  - {x: -1, y: 0, z: 0, w: -1}
  - {x: 1, y: 0, z: 0, w: -1}
  - {x: 1, y: 0, z: 0, w: -1}
  - {x: 1, y: 0, z: 0, w: -1}
  - {x: 1, y: 0, z: 0, w: -1}
  - {x: -1, y: 0, z: 0, w: -1}
  - {x: -1, y: 0, z: 0, w: -1}
  - {x: -1, y: 0, z: 0, w: -1}
  - {x: -1, y: 0, z: 0, w: -1}
  - {x: 1, y: 0, z: 0, w: -1}
  - {x: 1, y: 0, z: 0, w: -1}
  - {x: 1, y: 0, z: 0, w: -1}
  - {x: 1, y: 0, z: 0, w: -1}
  - {x: -1, y: 0, z: 0, w: -1}
  - {x: -1, y: 0, z: 0, w: -1}
  - {x: -1, y: 0, z: 0, w: -1}
  - {x: -1, y: 0, z: 0, w: -1}
  - {x: 1, y: 0, z: 0, w: -1}
  - {x: 1, y: 0, z: 0, w: -1}
  - {x: 1, y: 0, z: 0, w: -1}
  - {x: 1, y: 0, z: 0, w: -1}
  - {x: -1, y: 0, z: 0, w: -1}
  - {x: -1, y: 0, z: 0, w: -1}
  - {x: -1, y: 0, z: 0, w: -1}
  - {x: -1, y: 0, z: 0, w: -1}
  - {x: 1, y: 0, z: 0, w: -1}
  - {x: 1, y: 0, z: 0, w: -1}
  - {x: 1, y: 0, z: 0, w: -1}
  - {x: 1, y: 0, z: 0, w: -1}
  - {x: -1, y: 0, z: 0, w: -1}
  - {x: -1, y: 0, z: 0, w: -1}
  - {x: -1, y: 0, z: 0, w: -1}
  - {x: -1, y: 0, z: 0, w: -1}
  - {x: 1, y: 0, z: 0, w: -1}
  - {x: 1, y: 0, z: 0, w: -1}
  - {x: 1, y: 0, z: 0, w: -1}
  - {x: 1, y: 0, z: 0, w: -1}
  - {x: -1, y: 0, z: 0, w: -1}
  - {x: -1, y: 0, z: 0, w: -1}
  - {x: -1, y: 0, z: 0, w: -1}
  - {x: -1, y: 0, z: 0, w: -1}
  - {x: 1, y: 0, z: 0, w: -1}
  - {x: 1, y: 0, z: 0, w: -1}
  - {x: 1, y: 0, z: 0, w: -1}
  - {x: 1, y: 0, z: 0, w: -1}
  - {x: -1, y: 0, z: 0, w: -1}
  - {x: -1, y: 0, z: 0, w: -1}
  - {x: -1, y: 0, z: 0, w: -1}
  - {x: -1, y: 0, z: 0, w: -1}
  - {x: 1, y: 0, z: 0, w: -1}
  - {x: 1, y: 0, z: 0, w: -1}
  - {x: 1, y: 0, z: 0, w: -1}
  - {x: 1, y: 0, z: 0, w: -1}
  - {x: -1, y: 0, z: 0, w: -1}
  - {x: -1, y: 0, z: 0, w: -1}
  - {x: -1, y: 0, z: 0, w: -1}
  - {x: -1, y: 0, z: 0, w: -1}
  - {x: 1, y: 0, z: 0, w: -1}
  - {x: 1, y: 0, z: 0, w: -1}
  - {x: 1, y: 0, z: 0, w: -1}
  - {x: 1, y: 0, z: 0, w: -1}
  m_Colors: []
  m_UnwrapParameters:
    m_HardAngle: 88
    m_PackMargin: 20
    m_AngleError: 8
    m_AreaError: 15
  m_PreserveMeshAssetOnDestroy: 0
  assetGuid: 
  m_IsSelectable: 1
  m_SelectedFaces: 
  m_SelectedEdges: []
  m_SelectedVertices: 
--- !u!64 &1315263612409126021
MeshCollider:
  m_ObjectHideFlags: 0
  m_CorrespondingSourceObject: {fileID: 0}
  m_PrefabInstance: {fileID: 0}
  m_PrefabAsset: {fileID: 0}
  m_GameObject: {fileID: 4235846492882898682}
  m_Material: {fileID: 0}
  m_IsTrigger: 0
  m_Enabled: 1
  serializedVersion: 3
  m_Convex: 0
  m_CookingOptions: 14
  m_Mesh: {fileID: 0}
